0.1;22384.6435546875
43.4;22705.078125
130.2;22140.5029296875
149.2;22598.2666015625
150.5;22155.76171875
167.0;22628.7841796875
190.4;22125.244140625
201.6;22598.2666015625
212.8;22125.244140625
246.1;22689.8193359375
313.7;22140.5029296875
324.2;22705.078125
450.7;22125.244140625
524.9;22705.078125
572.6;22155.76171875
576.3;22750.8544921875
592.4;22171.0205078125
701.8;22674.560546875
770.9;22109.9853515625
860.9;22811.8896484375
893.1;22186.279296875
1018.0;22750.8544921875
1031.1;22155.76171875
1124.7;22644.04296875
1130.2;22171.0205078125
1240.3;22628.7841796875
1291.4;22155.76171875
1297.6;22613.525390625
1355.7;22109.9853515625
1402.3;22766.11328125
1414.4;22186.279296875
1501.1;22735.595703125
1509.7;22125.244140625
1542.6;22705.078125
1552.4;22186.279296875
1658.2;22705.078125
1710.7;22155.76171875
1723.4;22750.8544921875
1730.8;22186.279296875
1805.4;22705.078125
1953.0;22109.9853515625
2043.6;22750.8544921875
2051.2;22155.76171875
2203.7;22644.04296875
2270.9;22109.9853515625
2399.4;22705.078125
2450.3;22171.0205078125
2458.7;22735.595703125
2570.0;22140.5029296875
2576.3;22781.3720703125
2588.7;22171.0205078125
2721.6;22750.8544921875
2731.2;22125.244140625
2738.4;22659.3017578125
2750.9;22155.76171875
2755.2;22705.078125
2770.7;22155.76171875
2893.6;22735.595703125
2928.5;22201.5380859375
2936.1;22750.8544921875
2972.0;22079.4677734375
3084.4;22781.3720703125
3193.6;22171.0205078125
3213.9;22827.1484375
3229.6;22155.76171875
3333.5;22781.3720703125
3352.0;22125.244140625
3402.7;22720.3369140625
3431.7;22125.244140625
3577.7;22720.3369140625
3632.2;22155.76171875
3663.7;22781.3720703125
3669.8;22216.796875
3802.1;22659.3017578125
3852.3;22155.76171875
3861.4;22689.8193359375
3889.4;22140.5029296875
3904.9;22705.078125
3991.4;22140.5029296875
4097.7;22872.9248046875
4132.4;22155.76171875
4244.0;22750.8544921875
4251.3;22155.76171875
4261.8;22735.595703125
4270.2;22155.76171875
4270.7;22628.7841796875
4271.6;22186.279296875
4395.3;22613.525390625
4451.0;22155.76171875
4484.3;22781.3720703125
4489.3;22171.0205078125
4621.7;22750.8544921875
4628.7;22186.279296875
4779.8;22613.525390625
4791.1;22155.76171875
4805.5;22659.3017578125
4810.1;22155.76171875
4848.0;22628.7841796875
4948.9;22216.796875
4957.7;22720.3369140625
4969.3;22201.5380859375
4983.4;22674.560546875
4988.5;22079.4677734375
5137.6;22720.3369140625
5150.8;22140.5029296875
5162.3;22766.11328125
5249.7;22171.0205078125
5263.1;22796.630859375
5269.8;22186.279296875
5279.9;22705.078125
5309.3;22155.76171875
5464.7;22705.078125
5469.9;22155.76171875
5481.5;22781.3720703125
5510.5;22125.244140625
5682.1;22750.8544921875
5688.1;22155.76171875
5707.8;22781.3720703125
5749.3;22155.76171875
5776.0;22796.630859375
5850.8;22171.0205078125
6005.3;22735.595703125
6009.2;22140.5029296875
6114.0;22659.3017578125
6191.3;22201.5380859375
6203.9;22781.3720703125
6210.2;22140.5029296875
6220.7;22720.3369140625
6270.1;22094.7265625
6279.0;22659.3017578125
6289.6;22140.5029296875
6320.5;22613.525390625
6329.3;22140.5029296875
6479.6;22598.2666015625
6491.2;22140.5029296875
6496.4;22613.525390625
6530.3;22048.9501953125
6581.4;22567.7490234375
6587.6;22048.9501953125
6622.9;22521.97265625
6748.5;22033.69140625
6758.3;22506.7138671875
6771.5;21957.3974609375
6784.0;22521.97265625
6888.4;22033.69140625
7020.2;22796.630859375
7148.3;22186.279296875
7201.1;22766.11328125
7210.1;22155.76171875
7318.7;22720.3369140625
7392.1;22186.279296875
7401.7;22842.4072265625
7467.5;22140.5029296875
7501.5;22766.11328125
7530.6;22140.5029296875
7559.8;22720.3369140625
7590.4;22155.76171875
7618.1;22659.3017578125
7629.7;22186.279296875
7761.4;22689.8193359375
7787.8;22140.5029296875
7855.3;22659.3017578125
7949.6;22247.314453125
7956.1;22750.8544921875
8009.2;22201.5380859375
8024.3;22766.11328125
8030.6;22186.279296875
8041.1;22903.4423828125
8048.1;22140.5029296875
8158.7;22781.3720703125
8230.9;22155.76171875
8259.5;22796.630859375
8311.1;22140.5029296875
8445.3;22750.8544921875
8450.1;22201.5380859375
8577.7;22735.595703125
8669.2;22155.76171875
8726.9;22720.3369140625
8787.4;22155.76171875
8853.4;22842.4072265625
8866.8;22277.83203125
8980.9;22827.1484375
9131.2;22186.279296875
9139.0;22766.11328125
9313.8;22064.208984375
9314.8;29312.1337890625
9384.9;21728.515625
9585.7;22827.1484375
9607.9;22018.4326171875
9722.1;22949.21875
9748.9;22201.5380859375
9800.5;22872.9248046875
9907.9;22308.349609375
9921.7;23025.5126953125
10094.2;21987.9150390625
10097.6;22933.9599609375
10115.7;21423.33984375
10131.2;22689.8193359375
10131.3;21362.3046875
10238.9;22720.3369140625
10253.0;21270.751953125
10357.5;22766.11328125
10365.4;21377.5634765625
10400.0;22659.3017578125
10467.5;22079.4677734375
10521.6;22735.595703125
10527.7;22155.76171875
10671.8;22659.3017578125
10709.2;22125.244140625
10723.2;22720.3369140625
10828.4;22094.7265625
10901.1;22781.3720703125
10906.4;22125.244140625
10978.2;22659.3017578125
11069.1;22094.7265625
11081.0;22796.630859375
11089.0;22094.7265625
11114.6;22750.8544921875
11127.5;22125.244140625
11180.8;22689.8193359375
11187.3;22094.7265625
11305.3;22644.04296875
11308.2;22140.5029296875
11338.9;22613.525390625
11346.2;22125.244140625
11442.7;22583.0078125
11529.8;22125.244140625
11537.6;22567.7490234375
11569.1;22048.9501953125
11581.1;22644.04296875
11586.1;22125.244140625
11702.7;22598.2666015625
11808.1;22125.244140625
11818.4;22735.595703125
11887.4;22125.244140625
11898.5;22766.11328125
11908.3;22125.244140625
11968.7;22644.04296875
12090.4;22140.5029296875
12096.2;22659.3017578125
12129.7;22079.4677734375
12148.6;22659.3017578125
12229.4;22109.9853515625
12282.1;22735.595703125
12406.9;21682.7392578125
12557.9;22399.90234375
12627.0;21652.2216796875
12753.6;22384.6435546875
12769.4;21728.515625
12822.8;22369.384765625
12926.7;21774.2919921875
13042.2;22552.490234375
13166.6;21987.9150390625
13221.0;22583.0078125
13227.1;21987.9150390625
13278.3;22644.04296875
13285.8;22079.4677734375
13378.1;22552.490234375
13468.9;22033.69140625
13498.6;22689.8193359375
13527.8;21957.3974609375
13581.6;22598.2666015625
13589.0;22033.69140625
13615.2;22567.7490234375
13710.4;22155.76171875
13716.0;22720.3369140625
13788.6;22140.5029296875
13798.0;22766.11328125
13909.2;22155.76171875
13920.5;22766.11328125
13948.0;22155.76171875
13961.0;22842.4072265625
13986.1;22125.244140625
14096.4;22628.7841796875
14104.6;22079.4677734375
14238.7;22552.490234375
14245.3;22018.4326171875
14279.2;22567.7490234375
14366.0;22003.173828125
14372.1;22567.7490234375
14444.8;21926.8798828125
14553.9;22552.490234375
14708.2;22125.244140625
14713.0;22613.525390625
14769.3;21942.138671875
14799.0;22735.595703125
14804.6;22079.4677734375
14981.9;22659.3017578125
14987.5;22094.7265625
15097.6;22613.525390625
15148.4;22064.208984375
15170.7;22720.3369140625
15269.1;22094.7265625
15297.2;22842.4072265625
15367.5;22033.69140625
15437.5;22705.078125
15488.6;22003.173828125
15496.8;22567.7490234375
15646.8;22079.4677734375
15676.7;22659.3017578125
15728.6;22109.9853515625
15737.0;22705.078125
15747.2;22079.4677734375
15798.3;22705.078125
15909.3;22125.244140625
15919.9;22781.3720703125
15925.1;22140.5029296875
15980.2;22750.8544921875
15988.6;22125.244140625
16093.9;22689.8193359375
16146.6;22018.4326171875
16215.5;22659.3017578125
16346.1;22125.244140625
16359.8;22750.8544921875
16366.1;22140.5029296875
16499.4;22598.2666015625
16526.6;22125.244140625
16558.5;22918.701171875
16706.5;22094.7265625
16713.7;22705.078125
16728.3;22125.244140625
16840.2;22705.078125
16864.7;22125.244140625
16873.8;22720.3369140625
16888.1;22094.7265625
16932.1;22735.595703125
16945.3;22109.9853515625
16956.8;22750.8544921875
16987.0;22125.244140625
17082.3;22720.3369140625
17085.6;22155.76171875
17178.2;22705.078125
17327.0;22140.5029296875
17355.1;22735.595703125
17366.1;22171.0205078125
17455.9;22933.9599609375
17647.1;22048.9501953125
17658.5;22674.560546875
17663.4;22140.5029296875
17823.6;22674.560546875
17845.1;22140.5029296875
17857.2;22705.078125
17925.6;22094.7265625
18000.5;22705.078125
18004.7;22171.0205078125
18141.8;22705.078125
18268.2;22171.0205078125
18279.2;22750.8544921875
18287.3;22140.5029296875
18296.0;22750.8544921875
18303.7;22155.76171875
18329.6;22705.078125
18465.1;22140.5029296875
18479.8;22705.078125
18525.2;22125.244140625
18615.2;22781.3720703125
18647.7;22155.76171875
18777.3;22720.3369140625
18884.7;22155.76171875
18894.9;22766.11328125
18967.4;22125.244140625
19033.2;22796.630859375
19066.0;22155.76171875
19122.1;22735.595703125
19127.0;22155.76171875
19277.2;22720.3369140625
19283.3;22155.76171875
19437.2;22674.560546875
19445.4;22125.244140625
19453.0;22705.078125
19546.2;22140.5029296875
19558.7;22750.8544921875
19567.8;22171.0205078125
19651.6;22720.3369140625
19766.5;22171.0205078125
19777.1;22720.3369140625
19785.7;22171.0205078125
19860.1;22705.078125
19884.6;22140.5029296875
19910.5;22659.3017578125
20066.5;22140.5029296875
20080.5;22796.630859375
20085.1;22171.0205078125
20154.6;22583.0078125
20247.6;22155.76171875
20262.3;22613.525390625
20266.2;22125.244140625
20276.0;30380.2490234375
20346.4;19271.8505859375
20376.4;30593.8720703125
20406.7;19348.14453125
20436.6;30502.3193359375
20486.9;19409.1796875
20496.8;30395.5078125
20527.0;21835.3271484375
20537.0;30349.7314453125
20547.1;21820.068359375
20666.9;30075.0732421875
20671.1;21499.6337890625
20688.2;39291.3818359375
20706.6;22201.5380859375
20784.1;22750.8544921875
20824.6;21942.138671875
20861.2;22842.4072265625
20904.0;21942.138671875
20911.6;22994.9951171875
21067.1;21896.3623046875
21091.4;22918.701171875
21203.1;21804.8095703125
21238.6;22933.9599609375
21307.7;21804.8095703125
21335.4;22994.9951171875
21504.1;21286.0107421875
21596.2;22872.9248046875
21729.2;21377.5634765625
21856.7;31219.482421875
21857.1;19821.1669921875
21896.9;31204.2236328125
21917.5;19714.35546875
21957.1;31005.859375
21957.3;22354.1259765625
22017.3;31387.3291015625
22017.7;22277.83203125
22027.6;31066.89453125
22156.2;22933.9599609375
22161.7;37368.7744140625
22178.7;22598.2666015625
22179.8;39566.0400390625
22184.9;22262.5732421875
22197.7;22918.701171875
22264.1;21987.9150390625
22318.1;22689.8193359375
22322.2;21987.9150390625
22337.3;22842.4072265625
22403.1;21942.138671875
22436.9;22811.8896484375
22463.8;21957.3974609375
22510.3;22781.3720703125
22610.5;21957.3974609375
22615.1;22872.9248046875
22725.5;21957.3974609375
22775.2;22903.4423828125
22843.8;21942.138671875
22931.4;22857.666015625
22998.3;21881.103515625
23034.2;22781.3720703125
23125.2;21530.1513671875
23160.7;22903.4423828125
23249.0;21606.4453125
23320.3;31036.376953125
23330.3;22186.279296875
23350.2;31204.2236328125
23350.6;22216.796875
23450.6;31127.9296875
23451.0;22109.9853515625
23460.9;31066.89453125
23471.0;22384.6435546875
23530.9;31082.1533203125
23626.2;22293.0908203125
23655.3;37521.3623046875
23672.4;22628.7841796875
23673.2;39749.1455078125
23683.8;22293.0908203125
23733.5;22949.21875
23744.7;22247.314453125
23772.6;22933.9599609375
23884.5;22308.349609375
23895.2;23010.25390625
24045.3;21926.8798828125
24050.4;22811.8896484375
24104.4;21957.3974609375
24216.1;22842.4072265625
24264.1;21865.8447265625
24278.7;22872.9248046875
24324.3;21942.138671875
24456.6;22735.595703125
24463.5;21835.3271484375
24473.4;22796.630859375
24526.5;21759.033203125
24578.2;22979.736328125
24661.8;21759.033203125
24691.9;22933.9599609375
24723.1;21804.8095703125
24895.5;23010.25390625
24920.6;22323.6083984375
24974.6;22918.701171875
24982.6;22308.349609375
25035.9;22888.18359375
25146.5;22369.384765625
25156.5;23010.25390625
25166.9;22338.8671875
25216.8;22918.701171875
25245.2;22232.0556640625
25318.6;22872.9248046875
25325.1;22293.0908203125
25335.4;22842.4072265625
25344.0;22308.349609375
25355.3;22735.595703125
25426.1;22521.97265625
25426.4;22338.8671875
25496.5;22918.701171875
25626.7;22354.1259765625
25631.9;22949.21875
25644.1;22277.83203125
25675.4;22872.9248046875
25685.1;22338.8671875
25754.5;22857.666015625
25760.7;22369.384765625
25772.3;22857.666015625
25784.0;22338.8671875
25914.7;22766.11328125
25944.9;22354.1259765625
25976.0;22872.9248046875
26003.9;22323.6083984375
26053.1;22903.4423828125
26083.8;22216.796875
26097.6;22949.21875
26265.4;22262.5732421875
26297.3;22918.701171875
26304.8;22293.0908203125
26410.0;22811.8896484375
26504.7;22293.0908203125
26513.8;22811.8896484375
26526.0;22247.314453125
26557.3;22827.1484375
26565.4;22323.6083984375
26575.1;22918.701171875
26686.8;22277.83203125
26713.5;22918.701171875
26764.7;22201.5380859375
26856.8;22811.8896484375
26981.7;22338.8671875
26983.3;22857.666015625
27044.3;22201.5380859375
27075.2;22872.9248046875
27085.0;22262.5732421875
27211.6;22857.666015625
27342.5;22232.0556640625
27353.9;22888.18359375
27382.5;22262.5732421875
27411.2;22827.1484375
27545.2;22262.5732421875
27551.5;22827.1484375
27625.6;22247.314453125
27629.6;22796.630859375
27643.3;22247.314453125
27758.1;22720.3369140625
27764.0;22201.5380859375
27896.5;22842.4072265625
27903.2;22232.0556640625
28023.0;22949.21875
28083.9;22232.0556640625
28198.9;22964.4775390625
28202.7;22262.5732421875
28231.5;22888.18359375
28265.2;22216.796875
28276.0;22750.8544921875
28423.6;22247.314453125
28478.5;22872.9248046875
28503.0;22247.314453125
28512.1;22872.9248046875
28521.5;22247.314453125
28597.1;22811.8896484375
28708.2;22354.1259765625
28714.7;22918.701171875
28743.6;22262.5732421875
28859.0;22888.18359375
28904.3;22232.0556640625
28957.8;22949.21875
29042.7;22232.0556640625
29150.5;22918.701171875
29263.3;22293.0908203125
29268.1;23040.771484375
29282.8;22262.5732421875
29390.6;22811.8896484375
29406.0;22171.0205078125
29481.5;22720.3369140625
29602.1;22186.279296875
29696.9;30868.5302734375
29727.3;22186.279296875
29746.8;30960.0830078125
29747.2;22186.279296875
29757.2;30960.0830078125
29767.3;19668.5791015625
29817.4;31173.7060546875
29907.8;19653.3203125
29917.8;31143.1884765625
29927.7;22354.1259765625
29937.8;31051.6357421875
29947.8;22277.83203125
29957.9;31021.1181640625
29967.9;22216.796875
29968.3;30914.306640625
30109.0;22567.7490234375
30109.1;39474.4873046875
30110.8;22293.0908203125
30193.8;22933.9599609375
30302.7;22125.244140625
30310.8;22933.9599609375
30385.8;21362.3046875
30436.4;22674.560546875
30440.4;21423.33984375
30516.4;22796.630859375
30524.1;21331.787109375
30564.8;22750.8544921875
30579.2;21316.5283203125
30589.5;22888.18359375
30612.2;21286.0107421875
30614.2;22903.4423828125
30680.4;21270.751953125
30688.3;22796.630859375
30724.8;21301.26953125
30734.8;22613.525390625
30797.3;21347.0458984375
30935.4;22689.8193359375
30939.5;21286.0107421875
31012.5;22979.736328125
31163.3;21240.234375
31250.2;31295.7763671875
31320.5;22140.5029296875
31330.5;31158.447265625
31340.7;19912.7197265625
31360.3;31188.96484375
31360.7;19638.0615234375
31380.4;31112.6708984375
31380.8;22064.208984375
31430.9;31250.0
31441.0;22048.9501953125
31450.9;31188.96484375
31460.9;22186.279296875
31520.4;30487.060546875
31600.1;22384.6435546875
31603.4;39505.0048828125
31604.1;22338.8671875
31708.9;22964.4775390625
31721.2;22232.0556640625
31833.1;22857.666015625
31902.9;22277.83203125
31912.2;22964.4775390625
32002.3;21804.8095703125
32054.5;22842.4072265625
32063.6;21301.26953125
32151.5;22811.8896484375
32164.4;21362.3046875
32214.8;22918.701171875
32302.5;21286.0107421875
32312.7;22872.9248046875
32402.4;21255.4931640625
32470.9;22979.736328125
32477.3;21408.0810546875
32479.8;22796.630859375
32524.1;21286.0107421875
32646.9;22811.8896484375
32664.0;21377.5634765625
32762.1;30822.75390625
32792.4;19714.35546875
32832.1;30868.5302734375
32852.7;19699.0966796875
32922.8;31097.412109375
32932.9;19683.837890625
33094.7;39566.0400390625
33102.6;22247.314453125
33211.5;22964.4775390625
33326.9;22247.314453125
33333.1;22903.4423828125
33382.1;21987.9150390625
33432.5;22811.8896484375
33438.4;21881.103515625
33455.7;22903.4423828125
33485.9;21728.515625
33597.1;22888.18359375
33660.5;21621.7041015625
33674.2;22933.9599609375
33723.7;21469.1162109375
33812.6;23040.771484375
33839.4;21270.751953125
33960.9;22842.4072265625
34056.9;21316.5283203125
34091.4;22964.4775390625
34162.2;21514.892578125
34214.9;31051.6357421875
34225.0;19653.3203125
34235.0;31387.3291015625
34285.2;19699.0966796875
34395.6;31173.7060546875
34405.8;19714.35546875
34415.7;31265.2587890625
34425.7;19638.0615234375
34587.8;39611.81640625
34588.0;22476.1962890625
34588.2;23696.8994140625
34722.4;21514.892578125
34772.6;22964.4775390625
34805.9;21530.1513671875
34894.2;22705.078125
34920.7;21270.751953125
35025.7;22888.18359375
35037.0;21286.0107421875
35093.9;22827.1484375
35141.2;21286.0107421875
35308.4;22949.21875
35388.8;21331.787109375
35444.8;22796.630859375
35467.3;21316.5283203125
35469.5;22872.9248046875
35544.1;21347.0458984375
35550.5;22918.701171875
35638.2;21453.857421875
35668.0;30563.3544921875
35678.2;19546.5087890625
35748.4;31066.89453125
35858.7;21987.9150390625
35918.8;30822.75390625
35919.2;19546.5087890625
36058.3;30075.0732421875
36063.2;21423.33984375
36080.0;39382.9345703125
36083.0;22277.83203125
36151.0;22964.4775390625
36179.8;22232.0556640625
36195.9;22933.9599609375
36316.0;22262.5732421875
36356.0;22994.9951171875
36363.5;22125.244140625
36390.6;23010.25390625
36504.2;22018.4326171875
36611.9;22842.4072265625
36624.6;21987.9150390625
36709.9;23010.25390625
36824.7;21469.1162109375
36828.5;22903.4423828125
36909.3;21362.3046875
36932.3;22964.4775390625
37093.1;21362.3046875
37105.3;22766.11328125
37134.4;21499.6337890625
37147.8;22857.666015625
37322.3;22323.6083984375
37331.7;22979.736328125
37383.7;22293.0908203125
37410.8;22949.21875
37423.6;22247.314453125
37454.3;23010.25390625
37503.0;22308.349609375
37592.7;22949.21875
37641.0;22354.1259765625
37814.2;22933.9599609375
37818.9;22399.90234375
37848.8;22918.701171875
37857.9;22399.90234375
37875.5;22872.9248046875
37960.6;22354.1259765625
38016.9;22857.666015625
38041.8;22369.384765625
38070.3;22872.9248046875
38182.4;22354.1259765625
38211.7;23025.5126953125
38220.4;22399.90234375
38274.0;22872.9248046875
38281.1;22338.8671875
38354.1;22842.4072265625
38360.5;22354.1259765625
38432.2;22827.1484375
38583.8;22354.1259765625
38592.4;22842.4072265625
38681.8;22308.349609375
38695.2;22918.701171875
38740.4;22308.349609375
38749.6;23025.5126953125
38800.8;22308.349609375
38876.2;23010.25390625
38921.9;22262.5732421875
39018.7;22903.4423828125
39021.6;22323.6083984375
39056.3;22903.4423828125
39060.4;22354.1259765625
39131.5;22888.18359375
39219.6;22338.8671875
39232.4;22964.4775390625
39242.8;22308.349609375
39330.3;22949.21875
39338.2;22293.0908203125
39428.2;22933.9599609375
39440.4;22338.8671875
39463.8;22933.9599609375
39484.3;22277.83203125
39490.5;22918.701171875
39623.0;22338.8671875
39634.9;22918.701171875
39659.6;22262.5732421875
39829.7;22857.666015625
39843.6;22323.6083984375
39970.1;22796.630859375
40081.6;22171.0205078125
40191.6;22827.1484375
40382.3;22186.279296875
40389.4;22888.18359375
40461.0;22201.5380859375
40493.2;22918.701171875
40516.6;22308.349609375
40653.4;22827.1484375
40739.7;22277.83203125
40745.4;22918.701171875
40880.3;22354.1259765625
40913.5;22933.9599609375
40919.5;22308.349609375
40974.8;22918.701171875
40979.6;22338.8671875
41070.7;22903.4423828125
41220.3;22338.8671875
41234.9;22964.4775390625
41381.0;22354.1259765625
41411.9;23040.771484375
41441.8;22369.384765625
41473.2;22994.9951171875
41580.8;22430.419921875
41633.4;23056.0302734375
41681.1;22384.6435546875
41756.0;22872.9248046875
41881.4;22369.384765625
41892.4;22888.18359375
41900.7;22308.349609375
41909.2;22918.701171875
42041.2;22308.349609375
42051.6;22949.21875
42059.5;22399.90234375
42172.6;22888.18359375
42238.9;22338.8671875
42293.9;23117.0654296875
42440.2;22293.0908203125
42526.3;22949.21875
42542.4;22277.83203125
42607.4;22888.18359375
42641.0;22293.0908203125
42670.7;22827.1484375
42839.1;22293.0908203125
42849.7;22857.666015625
42859.9;22338.8671875
42867.5;22888.18359375
42920.3;22308.349609375
42931.8;22918.701171875
42961.4;22216.796875
43011.9;22918.701171875
43120.9;22293.0908203125
43166.2;22964.4775390625
43221.8;22354.1259765625
43237.4;22994.9951171875
43261.3;22247.314453125
43379.8;23010.25390625
43400.6;22354.1259765625
43504.4;22979.736328125
43519.4;22338.8671875
43629.0;22964.4775390625
43641.4;22369.384765625
43751.6;22933.9599609375
43800.1;22354.1259765625
43812.9;23010.25390625
43921.6;22369.384765625
43925.6;23010.25390625
43926.1;22399.90234375
43985.9;22918.701171875
44097.4;22354.1259765625
44110.5;22842.4072265625
44139.3;22262.5732421875
44145.1;23056.0302734375
44160.2;22277.83203125
44325.1;23010.25390625
44340.8;22354.1259765625
44369.6;22872.9248046875
44503.7;22308.349609375
44510.0;22964.4775390625
44622.5;22277.83203125
44627.7;22994.9951171875
44638.2;22354.1259765625
44672.2;22888.18359375
44820.1;22338.8671875
44830.4;22933.9599609375
44859.9;22277.83203125
44872.9;23025.5126953125
44879.7;22308.349609375
44949.0;22979.736328125
44958.7;22323.6083984375
45070.6;22903.4423828125
45081.5;22354.1259765625
45227.8;22872.9248046875
45359.3;22338.8671875
45375.1;22964.4775390625
45458.4;22293.0908203125
45479.9;22857.666015625
45621.2;22247.314453125
45629.2;22903.4423828125
45658.5;22232.0556640625
45726.1;22811.8896484375
45740.6;22216.796875
45875.4;22888.18359375
45897.3;22262.5732421875
45911.0;22888.18359375
45921.4;22277.83203125
45928.8;22872.9248046875
45938.4;22338.8671875
46075.1;22857.666015625
46180.8;22399.90234375
46187.8;22979.736328125
46280.2;22354.1259765625
46293.6;23010.25390625
46300.0;22430.419921875
46311.4;23010.25390625
46315.8;22399.90234375
46346.0;22964.4775390625
46378.9;22354.1259765625
46512.1;22949.21875
46538.4;22384.6435546875
46547.7;23117.0654296875
46559.7;22308.349609375
46565.5;22994.9951171875
46621.8;22338.8671875
46707.9;22979.736328125
46719.2;22354.1259765625
46888.9;22964.4775390625
47020.3;22354.1259765625
47048.0;30960.0830078125
47058.3;19439.697265625
47168.5;31127.9296875
47259.1;19470.21484375
47268.9;31158.447265625
47319.2;19531.25
47319.4;30319.2138671875
47460.6;22415.1611328125
47461.7;39489.74609375
47461.8;22399.90234375
47546.2;22872.9248046875
47578.3;22201.5380859375
47590.9;22872.9248046875
47638.3;22216.796875
47649.2;22949.21875
47698.0;22308.349609375
47698.6;22964.4775390625
47818.4;22186.279296875
47836.9;22827.1484375
47859.3;21957.3974609375
47990.6;22827.1484375
47997.8;22003.173828125
48001.9;22827.1484375
48040.1;21957.3974609375
48068.1;22811.8896484375
48079.2;21942.138671875
48108.6;22918.701171875
48195.5;21896.3623046875
48251.8;23010.25390625
48296.5;21820.068359375
48306.2;22659.3017578125
48398.4;21926.8798828125
48488.5;22781.3720703125
48499.3;21987.9150390625
48512.6;22796.630859375
48520.1;21545.41015625
48541.2;30792.236328125
48551.3;19714.35546875
48631.3;31097.412109375
48671.8;19790.6494140625
48691.5;31036.376953125
48691.7;22277.83203125
48791.8;31112.6708984375
48936.2;21514.892578125
48953.3;39566.0400390625
48972.6;22399.90234375
49074.1;22964.4775390625
49158.1;22262.5732421875
49170.6;22994.9951171875
49318.5;21987.9150390625
49386.0;22994.9951171875
49482.5;21682.7392578125
49528.3;22796.630859375
49541.0;21606.4453125
49553.0;22888.18359375
49596.9;21636.962890625
49727.9;23040.771484375
49740.6;21606.4453125
49769.4;23025.5126953125
49924.6;21667.48046875
49927.5;23147.5830078125
49982.5;21331.787109375
50052.0;22888.18359375
50078.2;22323.6083984375
50143.9;22872.9248046875
50220.5;22323.6083984375
50226.9;22918.701171875
50301.5;22293.0908203125
50366.2;22994.9951171875
50419.8;22323.6083984375
50455.1;23010.25390625
50600.0;22277.83203125
50689.2;22964.4775390625
50759.6;22323.6083984375
50769.2;22964.4775390625
50801.0;22308.349609375
50848.2;23040.771484375
50857.6;22216.796875
50867.8;22735.595703125
50917.3;22262.5732421875
51029.1;22827.1484375
51057.8;22262.5732421875
51151.7;22872.9248046875
51157.9;22323.6083984375
51168.5;23025.5126953125
51257.9;22293.0908203125
51262.4;22933.9599609375
51338.8;22277.83203125
51387.9;22918.701171875
51422.2;22262.5732421875
51447.2;22949.21875
51461.6;22262.5732421875
51506.5;22979.736328125
51596.4;22247.314453125
51684.4;22964.4775390625
51858.2;22216.796875
51926.6;22964.4775390625
51936.7;22354.1259765625
51951.3;22949.21875
52119.3;22293.0908203125
52128.2;22933.9599609375
52137.6;22323.6083984375
52216.2;22888.18359375
52319.5;22232.0556640625
52461.4;22842.4072265625
52560.8;22186.279296875
52710.5;23010.25390625
52877.4;22232.0556640625
52905.2;22903.4423828125
52940.9;22277.83203125
52993.2;22903.4423828125
53080.1;22293.0908203125
53089.1;22918.701171875
53142.6;22323.6083984375
53302.6;22857.666015625
53319.9;22232.0556640625
53328.3;22857.666015625
53339.7;22323.6083984375
53345.1;22857.666015625
53479.1;22323.6083984375
53499.3;22933.9599609375
53596.8;22308.349609375
53621.9;22903.4423828125
53637.5;22247.314453125
53648.6;22903.4423828125
53739.0;22262.5732421875
53844.3;22903.4423828125
53860.6;22262.5732421875
53885.8;22872.9248046875
54015.9;22293.0908203125
54034.0;22918.701171875
54059.0;22354.1259765625
54066.6;23040.771484375
54078.6;22293.0908203125
54191.1;22964.4775390625
54195.2;22369.384765625
54351.2;22842.4072265625
54378.1;22308.349609375
54392.7;22842.4072265625
54437.2;22323.6083984375
54451.0;22964.4775390625
54479.2;22354.1259765625
54493.5;22979.736328125
54620.8;22262.5732421875
54668.4;22796.630859375
54680.7;22338.8671875
54744.5;22857.666015625
54823.4;22415.1611328125
54829.5;22949.21875
54917.7;22293.0908203125
54948.1;22933.9599609375
54965.9;22201.5380859375
54973.8;22888.18359375
54978.3;22308.349609375
55129.0;22888.18359375
55195.9;22277.83203125
55205.1;22918.701171875
55359.4;22247.314453125
55454.2;22933.9599609375
55458.7;22232.0556640625
55572.8;22842.4072265625
55640.3;22155.76171875
55749.7;22811.8896484375
55841.5;22232.0556640625
55845.6;22857.666015625
55858.6;22171.0205078125
56009.7;22842.4072265625
56017.9;22293.0908203125
56189.7;22872.9248046875
56216.8;22323.6083984375
56225.3;22903.4423828125
56317.1;22308.349609375
56332.1;22979.736328125
56338.8;22308.349609375
56445.8;22949.21875
56500.1;22354.1259765625
56506.1;23101.806640625
56516.7;22262.5732421875
56666.2;22918.701171875
56779.1;22323.6083984375
56793.7;22933.9599609375
56918.2;22293.0908203125
57049.8;22933.9599609375
57115.7;22262.5732421875
57144.7;22964.4775390625
57157.2;22338.8671875
57170.4;22903.4423828125
57178.6;22338.8671875
57281.1;22888.18359375
57336.7;22293.0908203125
57470.5;22857.666015625
57479.4;22308.349609375
57522.2;22933.9599609375
57558.1;22308.349609375
57608.2;22918.701171875
57758.4;22308.349609375
57807.9;22964.4775390625
57877.6;22247.314453125
57929.5;23086.5478515625
57937.7;22232.0556640625
58087.7;22994.9951171875
58096.3;22323.6083984375
58096.6;22842.4072265625
58159.0;22262.5732421875
58252.1;22842.4072265625
58257.6;22323.6083984375
58270.6;22918.701171875
58420.4;22293.0908203125
58454.5;22918.701171875
58459.7;22323.6083984375
58463.4;22933.9599609375
58518.8;22308.349609375
58570.2;22994.9951171875
58637.9;22171.0205078125
58788.7;22888.18359375
58919.1;22216.796875
58930.1;22949.21875
58958.9;22247.314453125
58989.4;22964.4775390625
59017.1;22247.314453125
59110.0;22872.9248046875
59118.4;22277.83203125
59127.8;22827.1484375
59139.7;22232.0556640625
59145.6;22796.630859375
59157.3;22216.796875
59163.4;22766.11328125
59176.2;22216.796875
59209.0;22735.595703125
59317.5;22262.5732421875
59326.5;22949.21875
59337.5;22262.5732421875
59386.8;22872.9248046875
59415.9;22201.5380859375
59545.9;22811.8896484375
59556.8;22262.5732421875
59673.4;22796.630859375
59677.7;22216.796875
59797.9;22781.3720703125
59820.3;22247.314453125
59831.5;22811.8896484375
59839.6;22186.279296875
59919.3;30807.4951171875
59929.4;19821.1669921875
59939.4;30929.5654296875
60009.7;22155.76171875
60120.0;30670.166015625
60130.2;22232.0556640625
60169.9;31188.96484375
60190.4;19577.0263671875
60331.4;39352.4169921875
60354.2;22247.314453125
60429.4;22796.630859375
60497.5;21957.3974609375
60507.5;22766.11328125
60539.8;21987.9150390625
60550.0;22766.11328125
60557.7;21987.9150390625
60584.6;22766.11328125
60597.6;22064.208984375
60628.1;22964.4775390625
60658.7;21881.103515625
60769.5;22796.630859375
60916.6;21911.62109375
60972.1;22811.8896484375
61003.8;21545.41015625
61004.7;22811.8896484375
61046.1;21484.375
61055.1;22872.9248046875
61056.9;21347.0458984375
61088.7;22872.9248046875
61140.4;21301.26953125
61233.0;22933.9599609375
61233.2;21514.892578125
61367.4;22827.1484375
61392.0;21484.375
61411.5;30929.5654296875
61421.8;19622.802734375
61491.8;30914.306640625
61502.0;19577.0263671875
61622.0;30944.82421875
61622.5;19653.3203125
61632.3;30899.0478515625
61642.4;22033.69140625
61652.4;30868.5302734375
61662.6;22216.796875
61672.4;30853.271484375
61817.6;21987.9150390625
61823.9;39382.9345703125
61836.2;22216.796875
61841.8;22903.4423828125
61875.7;22216.796875
61907.0;22842.4072265625
62056.3;22262.5732421875
62065.1;22994.9951171875
62079.0;22216.796875
62206.4;22964.4775390625
62216.1;22201.5380859375
62291.4;22857.666015625
62375.6;22216.796875
62385.3;22964.4775390625
62416.6;22186.279296875
62546.4;22857.666015625
62577.2;22125.244140625
62631.4;22964.4775390625
62694.8;22018.4326171875
62820.2;22888.18359375
62856.2;22125.244140625
63071.3;22964.4775390625
63079.0;22308.349609375
63167.5;22827.1484375
63219.7;22262.5732421875
63230.5;22918.701171875
63318.8;22277.83203125
63352.1;22918.701171875
63498.4;22247.314453125
63525.1;22964.4775390625
63575.9;22216.796875
63611.1;22933.9599609375
63636.5;22277.83203125
63687.2;22888.18359375
63695.8;22262.5732421875
63781.1;22857.666015625
63795.9;22308.349609375
63928.4;22796.630859375
63979.4;22232.0556640625
64005.5;22811.8896484375
64019.1;22232.0556640625
64065.8;23025.5126953125
64096.1;22262.5732421875
64168.6;22750.8544921875
64217.2;22201.5380859375
64226.9;22766.11328125
64296.6;22201.5380859375
64329.7;22842.4072265625
64418.8;22201.5380859375
64450.3;22964.4775390625
64455.4;22262.5732421875
64546.2;22949.21875
64556.3;22308.349609375
64606.5;22872.9248046875
64677.5;22216.796875
64684.6;22872.9248046875
64778.7;22155.76171875
64830.9;22842.4072265625
64837.3;22171.0205078125
64907.0;22842.4072265625
65039.3;22277.83203125
65050.4;22979.736328125
65054.9;22293.0908203125
65130.5;22872.9248046875
65138.1;22323.6083984375
65148.3;22827.1484375
65157.6;22293.0908203125
65265.0;22811.8896484375
65303.0;22354.1259765625
65309.5;22872.9248046875
65359.5;22262.5732421875
65389.6;22842.4072265625
65474.7;22308.349609375
65530.0;22842.4072265625
65537.4;22354.1259765625
65546.8;23025.5126953125
65638.7;22430.419921875
65649.6;23040.771484375
65656.6;22354.1259765625
65666.4;22872.9248046875
65674.3;22415.1611328125
65726.7;22842.4072265625
65878.7;22338.8671875
65884.8;22888.18359375
65916.7;22338.8671875
65926.3;22903.4423828125
66075.7;21850.5859375
66287.9;22872.9248046875
66357.0;22262.5732421875
66409.4;23040.771484375
66421.1;22369.384765625
66508.2;23010.25390625
66597.2;22445.6787109375
66608.0;23056.0302734375
66637.6;22415.1611328125
66708.8;23025.5126953125
66798.4;22369.384765625
66809.6;23025.5126953125
66857.6;22369.384765625
66868.9;23025.5126953125
66878.4;22354.1259765625
66894.6;22949.21875
66895.1;22415.1611328125
66944.0;22918.701171875
67018.9;22354.1259765625
67042.8;22918.701171875
67056.1;22399.90234375
67067.5;22949.21875
67139.1;22369.384765625
67149.5;22979.736328125
67157.7;22369.384765625
67165.3;23040.771484375
67177.1;22384.6435546875
67223.6;22979.736328125
67379.9;22293.0908203125
67485.5;23010.25390625
67495.5;22293.0908203125
67590.3;23025.5126953125
67597.4;22415.1611328125
67651.6;23056.0302734375
67742.9;22415.1611328125
67750.5;23056.0302734375
67838.0;22308.349609375
67981.9;22994.9951171875
68079.1;22293.0908203125
68086.7;22994.9951171875
68136.9;22262.5732421875
68243.9;22918.701171875
68257.3;22216.796875
68313.1;22811.8896484375
68417.3;22232.0556640625
68429.8;22933.9599609375
68455.3;22232.0556640625
68528.7;22811.8896484375
68619.6;22308.349609375
68627.6;22857.666015625
68638.2;22216.796875
68689.9;22842.4072265625
68818.8;22247.314453125
68850.1;22872.9248046875
68857.4;22262.5732421875
68966.8;22827.1484375
69018.2;22216.796875
69047.9;22979.736328125
69056.1;22232.0556640625
69121.1;22872.9248046875
69159.8;22262.5732421875
69232.9;22827.1484375
69298.1;22171.0205078125
69308.1;22842.4072265625
69319.1;22262.5732421875
69427.8;22842.4072265625
69540.1;22277.83203125
69546.5;22903.4423828125
69677.2;22293.0908203125
69692.8;22949.21875
69697.6;22308.349609375
69744.2;22918.701171875
69776.3;22308.349609375
69795.6;22872.9248046875
69859.0;22216.796875
69970.6;22811.8896484375
70056.7;22308.349609375
70066.5;22888.18359375
70077.8;22338.8671875
70125.8;22857.666015625
70217.5;22308.349609375
70229.6;22827.1484375
70278.9;22201.5380859375
70325.5;22796.630859375
70338.3;22293.0908203125
70430.3;22857.666015625
70497.2;22323.6083984375
70509.4;23071.2890625
70517.5;22384.6435546875
70527.2;22964.4775390625
70534.6;22354.1259765625
70589.5;22918.701171875
70598.5;22323.6083984375
70643.9;22827.1484375
70738.9;22338.8671875
70750.7;22964.4775390625
70797.5;22247.314453125
70829.8;23040.771484375
70877.7;22216.796875
70907.9;22964.4775390625
70921.3;22277.83203125
71068.1;22888.18359375
71136.6;22293.0908203125
71148.2;22994.9951171875
71314.9;22171.0205078125
71330.2;22903.4423828125
71417.6;22109.9853515625
71430.1;22750.8544921875
71556.5;22186.279296875
71683.3;22872.9248046875
71793.1;22201.5380859375
71826.7;22964.4775390625
71874.3;22232.0556640625
71929.6;22827.1484375
72017.2;22247.314453125
72022.6;22918.701171875
72035.0;22308.349609375
72147.3;22918.701171875
72157.8;22308.349609375
72231.4;22872.9248046875
72297.1;22323.6083984375
72305.6;22979.736328125
72335.7;22247.314453125
72491.6;22933.9599609375
72496.4;22308.349609375
72604.4;22872.9248046875
72717.6;22216.796875
72770.6;23010.25390625
72777.4;22216.796875
72791.3;30944.82421875
72861.7;19439.697265625
72952.0;31021.1181640625
73062.6;19485.4736328125
73203.7;37643.4326171875
73251.7;21728.515625
73280.9;22857.666015625
73314.3;21484.375
73327.3;22735.595703125
73429.1;21820.068359375
73430.2;22857.666015625
73459.3;21514.892578125
73465.8;22949.21875
73538.9;21682.7392578125
73543.9;22964.4775390625
73561.8;21560.6689453125
73570.6;22949.21875
73716.3;21453.857421875
73766.4;23071.2890625
73819.2;21499.6337890625
73931.6;22933.9599609375
73955.2;21362.3046875
74044.4;22827.1484375
74134.7;21377.5634765625
74144.3;22781.3720703125
74150.3;21331.787109375
74245.2;22903.4423828125
74272.0;21286.0107421875
74313.1;30960.0830078125
74313.5;19729.6142578125
74453.6;31234.7412109375
74454.1;19668.5791015625
74463.9;31143.1884765625
74474.0;22018.4326171875
74484.0;30929.5654296875
74494.1;22125.244140625
74554.1;31219.482421875
74672.9;22674.560546875
74678.4;36361.6943359375
74695.7;22430.419921875
74696.1;39306.640625
74707.9;21942.138671875
74728.8;22888.18359375
74736.0;21942.138671875
74805.9;22827.1484375
74838.0;21774.2919921875
74910.7;22766.11328125
74999.4;21804.8095703125
75009.6;22796.630859375
75164.5;21453.857421875
75207.4;22857.666015625
75237.3;21377.5634765625
75326.1;22811.8896484375
75394.6;21438.5986328125
75406.2;22842.4072265625
75475.3;21377.5634765625
75591.0;22613.525390625
75595.7;21301.26953125
75730.6;22735.595703125
75737.9;21392.822265625
75815.4;30853.271484375
75885.8;22232.0556640625
75905.6;30944.82421875
75966.2;19805.908203125
75976.1;30776.9775390625
75986.1;22399.90234375
76026.0;30975.341796875
76026.2;22445.6787109375
76036.4;30853.271484375
76176.7;22125.244140625
76188.4;39581.298828125
76193.1;22293.0908203125
76247.6;22964.4775390625
76256.5;22186.279296875
76330.0;23010.25390625
76353.9;22445.6787109375
76355.1;22201.5380859375
76512.0;22842.4072265625
76517.9;22216.796875
76520.9;22994.9951171875
76658.3;22079.4677734375
76706.4;22827.1484375
76717.0;22064.208984375
76728.0;22827.1484375
76738.5;22171.0205078125
76766.1;22827.1484375
76799.6;22155.76171875
76848.6;22827.1484375
76978.6;22216.796875
76987.6;22903.4423828125
76993.2;22216.796875
77031.1;22872.9248046875
77035.7;22216.796875
77047.9;22827.1484375
77053.5;22216.796875
77082.5;22827.1484375
77236.6;22247.314453125
77268.2;31219.482421875
77378.9;22201.5380859375
77388.7;31250.0
77418.9;22064.208984375
77509.2;30883.7890625
77610.6;22201.5380859375
77663.4;37826.5380859375
77680.9;22460.9375
77681.8;39535.5224609375
77682.2;22445.6787109375
77771.6;22933.9599609375
77817.0;22262.5732421875
77827.9;23010.25390625
77959.4;22216.796875
77971.8;22933.9599609375
77978.2;22201.5380859375
77988.2;23071.2890625
77997.0;22216.796875
78007.9;22964.4775390625
78016.6;22186.279296875
78088.8;22949.21875
78157.1;22155.76171875
78169.7;22964.4775390625
78317.7;22216.796875
78344.1;22964.4775390625
78476.8;21453.857421875
78589.2;22949.21875
78598.3;21224.9755859375
78708.8;22964.4775390625
78718.5;21423.33984375
78802.4;30792.236328125
78812.5;22140.5029296875
78822.4;31082.1533203125
78832.5;19699.0966796875
78852.3;30929.5654296875
78872.9;20874.0234375
78932.6;31158.447265625
78953.1;19699.0966796875
78962.9;30960.0830078125
79013.3;19638.0615234375
79033.8;30822.75390625
79157.4;21392.822265625
79175.0;39443.9697265625
79176.0;22201.5380859375
79191.2;22933.9599609375
79215.4;22216.796875
79350.2;22903.4423828125
79459.0;22201.5380859375
79488.7;22994.9951171875
79617.8;22201.5380859375
79641.9;23025.5126953125
79652.3;21865.8447265625
79767.4;22933.9599609375
79836.6;21835.3271484375
79903.8;22888.18359375
80000.6;21469.1162109375
80032.3;22796.630859375
80037.7;21331.787109375
80066.9;23025.5126953125
80074.8;21301.26953125
80110.4;23040.771484375
80215.1;21484.375
80343.4;31021.1181640625
80343.8;19882.2021484375
80383.5;30990.6005859375
80384.0;22308.349609375
80483.9;31097.412109375
80484.2;22232.0556640625
80504.0;30990.6005859375
80504.4;22338.8671875
80524.1;30929.5654296875
80662.0;22048.9501953125
80665.9;39428.7109375
80673.3;22323.6083984375
80688.8;23025.5126953125
80697.5;22171.0205078125
80788.7;22811.8896484375
80802.7;21728.515625
80832.2;22796.630859375
80839.8;21591.1865234375
80841.1;22949.21875
80857.5;21636.962890625
80884.6;23025.5126953125
80896.1;21667.48046875
80928.1;22918.701171875
80936.7;21545.41015625
80971.6;22918.701171875
81017.6;21636.962890625
81048.7;22964.4775390625
81057.5;21636.962890625
81109.0;22949.21875
81240.3;21514.892578125
81247.4;22903.4423828125
81280.0;21530.1513671875
81369.0;23071.2890625
81373.2;21682.7392578125
81388.7;22705.078125
81397.0;21514.892578125
81531.1;22750.8544921875
81538.3;21530.1513671875
81588.4;23101.806640625
81704.5;21575.927734375
81745.1;31051.6357421875
81815.3;22140.5029296875
81825.4;31127.9296875
81835.4;22079.4677734375
81845.4;31234.7412109375
81895.8;19561.767578125
81925.8;31036.376953125
81956.1;19653.3203125
81965.8;30685.4248046875
81975.9;22125.244140625
82006.1;31021.1181640625
82157.3;22399.90234375
82158.4;39413.4521484375
82158.5;22430.419921875
82287.0;23010.25390625
82440.9;22232.0556640625
82448.2;22964.4775390625
82457.3;22155.76171875
82511.2;22994.9951171875
82537.7;22232.0556640625
82551.0;22994.9951171875
82636.5;22064.208984375
82645.9;23025.5126953125
82813.7;21591.1865234375
82847.5;22979.736328125
82916.2;21377.5634765625
82922.6;23010.25390625
83003.8;21377.5634765625
83105.4;22964.4775390625
83121.2;21270.751953125
83207.2;22918.701171875
83220.5;21514.892578125
83236.8;30746.4599609375
83287.3;20523.0712890625
83367.0;31158.447265625
83367.4;19653.3203125
83387.1;31097.412109375
83427.7;19821.1669921875
83447.3;30899.0478515625
83447.7;22323.6083984375
83487.4;31082.1533203125
83631.9;21957.3974609375
83649.4;39566.0400390625
83757.3;22140.5029296875
83812.1;23010.25390625
83816.5;22232.0556640625
83949.5;22994.9951171875
83977.3;22201.5380859375
84070.1;22918.701171875
84176.2;22262.5732421875
84182.8;22964.4775390625
84196.5;22140.5029296875
84325.2;22888.18359375
84476.6;22201.5380859375
84486.4;22949.21875
84556.7;22109.9853515625
84725.7;23040.771484375
84820.1;22354.1259765625
84827.5;23117.0654296875
84997.3;22216.796875
85030.2;22903.4423828125
85037.7;22308.349609375
85049.0;22857.666015625
85097.9;22277.83203125
85111.3;22842.4072265625
85257.3;22262.5732421875
85266.8;22827.1484375
85278.1;22277.83203125
85287.3;22842.4072265625
85336.7;22247.314453125
85427.7;22949.21875
85478.1;22262.5732421875
85505.8;23010.25390625
85556.6;22247.314453125
85630.4;23010.25390625
85635.4;22354.1259765625
85710.1;22903.4423828125
85817.3;22277.83203125
85852.8;22933.9599609375
85856.2;22308.349609375
85990.2;22872.9248046875
86098.1;22293.0908203125
86108.9;22918.701171875
86116.8;22338.8671875
86250.3;22872.9248046875
86254.7;22338.8671875
86390.0;22796.630859375
86419.8;22308.349609375
86426.3;22827.1484375
86478.2;22247.314453125
86508.4;22918.701171875
86516.5;22308.349609375
86642.9;22903.4423828125
86677.0;22369.384765625
86687.4;23040.771484375
86760.5;22323.6083984375
86947.5;22933.9599609375
86957.5;22384.6435546875
86967.6;22842.4072265625
86977.1;22399.90234375
87066.2;22827.1484375
87119.2;22384.6435546875
87130.5;22888.18359375
87239.7;22308.349609375
87250.2;22979.736328125
87360.2;22308.349609375
87367.9;23010.25390625
87519.3;22247.314453125
87588.5;23086.5478515625
87677.2;22232.0556640625
87731.9;22979.736328125
87878.8;22308.349609375
87891.1;23056.0302734375
87918.4;22354.1259765625
87926.7;23086.5478515625
87939.3;22308.349609375
88053.3;23056.0302734375
88058.0;22308.349609375
88170.0;22949.21875
88175.1;22323.6083984375
88305.5;22857.666015625
88337.5;22262.5732421875
88351.0;22857.666015625
88417.2;22293.0908203125
88424.2;22857.666015625
88438.3;22232.0556640625
88450.9;22949.21875
88476.6;22308.349609375
88588.4;22933.9599609375
88776.8;22216.796875
88806.1;22857.666015625
88817.6;22262.5732421875
88950.5;22872.9248046875
88998.2;22293.0908203125
89003.9;22842.4072265625
89037.9;22232.0556640625
89109.7;22903.4423828125
89277.0;22216.796875
89287.7;22964.4775390625
89296.5;22277.83203125
89429.1;22933.9599609375
89458.1;22293.0908203125
89490.4;22872.9248046875
89603.3;22323.6083984375
89612.0;22918.701171875
89656.4;22262.5732421875
89672.1;30807.4951171875
89682.3;19577.0263671875
89792.6;30807.4951171875
89883.1;19134.521484375
89943.0;30151.3671875
89943.3;18829.345703125
90084.6;38787.841796875
90098.4;21636.962890625
90185.6;22598.2666015625
90193.0;21881.103515625
90205.9;22583.0078125
90217.9;21820.068359375
90290.3;22628.7841796875
90298.1;21850.5859375
90351.6;22628.7841796875
90438.8;22079.4677734375
90451.5;22933.9599609375
90577.5;21270.751953125
90650.7;22796.630859375
90660.3;21362.3046875
90669.1;22857.666015625
90681.5;21286.0107421875
90730.2;22872.9248046875
90742.3;21347.0458984375
90789.7;23056.0302734375
90916.9;21286.0107421875
91085.3;22964.4775390625
91094.5;21301.26953125
91125.6;22872.9248046875
91134.4;21469.1162109375
91189.1;22979.736328125
91217.3;22308.349609375
91249.4;23056.0302734375
91277.5;22354.1259765625
91309.7;23025.5126953125
91437.7;22415.1611328125
91449.1;23040.771484375
91459.9;22323.6083984375
91484.7;23132.32421875
91539.1;22323.6083984375
91567.8;22918.701171875
91578.4;22308.349609375
91585.9;22903.4423828125
91719.4;22399.90234375
91725.9;23025.5126953125
91758.8;22323.6083984375
91828.7;23025.5126953125
91839.0;22384.6435546875
91888.0;22994.9951171875
92016.2;22323.6083984375
92086.7;23178.1005859375
92138.8;22232.0556640625
92287.4;23056.0302734375
92298.0;22262.5732421875
92448.5;22949.21875
92498.2;22323.6083984375
92508.8;22994.9951171875
92518.9;22308.349609375
92620.5;22933.9599609375
92739.4;22216.796875
92806.4;23040.771484375
92819.7;22232.0556640625
92966.6;22979.736328125
93059.9;22216.796875
93071.4;22994.9951171875
93097.0;22247.314453125
93107.0;23010.25390625
93115.5;22216.796875
93149.5;22964.4775390625
93158.6;22201.5380859375
93191.0;22949.21875
93198.8;22232.0556640625
93208.8;22949.21875
93219.2;22293.0908203125
93303.7;22949.21875
93400.1;22323.6083984375
93407.5;23010.25390625
93437.5;22247.314453125
93528.1;23010.25390625
93661.3;22323.6083984375
93667.5;23025.5126953125
93758.3;22277.83203125
93791.1;23040.771484375
93799.2;22293.0908203125
93808.9;22888.18359375
93957.5;22277.83203125
94026.4;23040.771484375
94199.3;22186.279296875
94272.6;23040.771484375
94400.3;22293.0908203125
94409.0;23056.0302734375
94478.0;22247.314453125
94510.8;23101.806640625
94578.5;22201.5380859375
94585.9;22964.4775390625
94697.7;22277.83203125
94788.5;22979.736328125
94798.7;22186.279296875
94990.2;23040.771484375
94998.9;22247.314453125
95071.0;22888.18359375
95156.1;22232.0556640625
95172.1;22903.4423828125
95339.1;22216.796875
95369.9;23025.5126953125
95497.4;22232.0556640625
95569.6;23086.5478515625
95597.8;22232.0556640625
95711.0;23040.771484375
95717.9;22247.314453125
95843.5;22918.701171875
95977.1;22232.0556640625
96004.7;22933.9599609375
96017.8;22232.0556640625
96085.8;22918.701171875
96097.3;22171.0205078125
96228.2;22903.4423828125
96235.2;22247.314453125
96247.0;22903.4423828125
96257.6;22232.0556640625
96273.7;22827.1484375
96357.7;22140.5029296875
96469.6;22872.9248046875
96479.7;22201.5380859375
96509.2;22888.18359375
96636.9;22232.0556640625
96668.4;22964.4775390625
96698.2;22171.0205078125
96713.9;23040.771484375
96717.9;22216.796875
96787.1;23025.5126953125
96797.6;22216.796875
96804.9;22994.9951171875
96917.6;22171.0205078125
96946.3;22949.21875
96958.7;22262.5732421875
97006.6;22933.9599609375
97139.9;22216.796875
97143.0;22979.736328125
97217.0;22186.279296875
97227.0;23010.25390625
97237.8;22247.314453125
97287.3;22918.701171875
97438.3;22155.76171875
97448.4;22949.21875
97556.5;22216.796875
97568.0;23025.5126953125
97617.8;22201.5380859375
97770.6;22979.736328125
97780.4;22308.349609375
97893.2;22933.9599609375
97939.8;22232.0556640625
97945.6;23010.25390625
97960.6;22216.796875
98070.2;23025.5126953125
98158.9;22186.279296875
98166.1;22842.4072265625
98181.0;22232.0556640625
98287.7;22903.4423828125
98320.3;22262.5732421875
98331.2;22964.4775390625
98379.2;22171.0205078125
98488.4;23056.0302734375
98539.2;22247.314453125
98548.7;23101.806640625
98580.4;22216.796875
98653.5;22933.9599609375
98657.9;22262.5732421875
98731.6;22903.4423828125
98841.4;22384.6435546875
98845.3;22949.21875
98857.4;22354.1259765625
98956.0;22918.701171875
99039.6;22262.5732421875
99050.9;23010.25390625
99118.6;22277.83203125
99129.0;23025.5126953125
99139.0;22247.314453125
99207.1;22933.9599609375
99340.4;22247.314453125
99371.2;23056.0302734375
99418.9;22155.76171875
99510.6;23025.5126953125
99538.5;22232.0556640625
99571.9;22964.4775390625
99579.5;22277.83203125
99650.0;22949.21875
99660.3;22247.314453125
99735.0;22857.666015625
99838.2;22293.0908203125
99846.7;23010.25390625
99857.7;22262.5732421875
99968.3;22903.4423828125
100020.0;22247.314453125
100048.4;22949.21875
100060.9;22247.314453125
100127.5;22933.9599609375
100221.8;22216.796875
100249.1;22994.9951171875
100358.8;22262.5732421875
100370.7;23010.25390625
100378.4;22308.349609375
100513.0;22979.736328125
100559.5;22216.796875
100628.6;23040.771484375
100659.0;22247.314453125
100772.9;23010.25390625
100878.2;22308.349609375
100891.5;23025.5126953125
100980.5;22216.796875
101050.4;31051.6357421875
101080.8;22094.7265625
101110.7;31097.412109375
101140.8;21972.65625
101150.8;31356.8115234375
101241.4;19577.0263671875
101251.2;31188.96484375
101321.6;19515.9912109375
101333.5;30303.955078125
101440.0;19760.1318359375
101440.8;30181.884765625
101445.5;21438.5986328125
101463.4;29724.12109375
101479.6;22140.5029296875
101649.4;23071.2890625
101684.5;22003.173828125
101689.9;22918.701171875
101694.9;22109.9853515625
101749.2;23071.2890625
101800.0;22354.1259765625
101800.1;22323.6083984375
101895.8;21514.892578125
101912.8;22888.18359375
101942.8;21621.7041015625
101970.1;22888.18359375
101980.4;21499.6337890625
102071.5;22979.736328125
102080.1;21606.4453125
102088.3;22964.4775390625
102096.9;21484.375
102114.0;22964.4775390625
102139.2;21453.857421875
102174.3;22918.701171875
102195.3;21377.5634765625
102228.9;22888.18359375
102251.2;21423.33984375
102291.9;22979.736328125
102299.5;21301.26953125
102412.5;23010.25390625
102426.0;21362.3046875
102447.1;23056.0302734375
102457.9;21362.3046875
102514.3;22979.736328125
102525.7;21377.5634765625
102634.2;31158.447265625
102754.9;22232.0556640625
102774.8;31143.1884765625
102775.3;19943.2373046875
102939.2;34027.099609375
102956.4;22506.7138671875
102957.2;39428.7109375
102961.0;22216.796875
102974.8;23010.25390625
103001.2;22216.796875
103030.3;22994.9951171875
103040.2;22247.314453125
103132.1;22933.9599609375
103262.8;22247.314453125
103269.5;23010.25390625
103319.8;22201.5380859375
103328.8;23040.771484375
103483.8;21972.65625
103533.7;22872.9248046875
103539.3;21881.103515625
103631.4;22842.4072265625
103641.6;21911.62109375
103709.5;22994.9951171875
103876.6;21697.998046875
103890.5;23086.5478515625
104002.2;21697.998046875
104037.6;30960.0830078125
104128.1;19683.837890625
104188.0;31127.9296875
104188.3;19729.6142578125
104308.6;31234.7412109375
104308.9;19927.978515625
104450.0;39627.0751953125
104460.9;22140.5029296875
104483.9;23040.771484375
104701.9;22140.5029296875
104771.6;23071.2890625
104781.3;22216.796875
104869.5;23071.2890625
104879.5;22277.83203125
104932.8;22949.21875
105061.8;22262.5732421875
105069.3;23040.771484375
105216.7;21514.892578125
105270.1;22918.701171875
105279.7;21499.6337890625
105330.4;22964.4775390625
105342.3;21301.26953125
105392.7;23025.5126953125
105401.4;21286.0107421875
105471.8;23040.771484375
105517.9;21606.4453125
105531.4;31250.0
105581.7;19668.5791015625
105591.7;31051.6357421875
105642.0;19683.837890625
105651.9;31188.96484375
105662.1;22201.5380859375
105732.2;31295.7763671875
105873.8;22338.8671875
105926.6;32821.6552734375
105939.8;22171.0205078125
105944.7;29571.533203125
105963.7;22232.0556640625
106016.6;23208.6181640625
106017.7;22277.83203125
106034.4;23101.806640625
106126.9;21896.3623046875
106173.5;22872.9248046875
106183.0;21926.8798828125
106188.7;22949.21875
106200.9;21911.62109375
106206.5;23010.25390625
106280.5;21926.8798828125
106294.5;23040.771484375
106363.8;21850.5859375
106391.4;22994.9951171875
106420.4;21820.068359375
106471.5;23025.5126953125
106526.3;21820.068359375
106553.6;23117.0654296875
106642.0;21423.33984375
106734.6;22949.21875
106740.8;21438.5986328125
106752.4;22949.21875
106760.0;21423.33984375
106770.2;22979.736328125
106798.7;21377.5634765625
106815.7;23025.5126953125
106821.7;21301.26953125
106831.6;22888.18359375
106842.5;21331.787109375
106852.7;22903.4423828125
106973.2;21423.33984375
107014.5;23010.25390625
107082.9;22308.349609375
107092.0;22949.21875
107142.6;22308.349609375
107291.4;22949.21875
107303.0;22171.0205078125
107309.2;22933.9599609375
107500.7;22232.0556640625
107549.5;22933.9599609375
107561.9;22171.0205078125
107753.2;23056.0302734375
107781.3;22247.314453125
107812.5;23101.806640625
107943.0;22247.314453125
108034.0;23010.25390625
108061.2;22277.83203125
108153.7;23010.25390625
108160.6;22293.0908203125
108190.3;22933.9599609375
108321.1;22323.6083984375
108335.7;23071.2890625
108341.1;22232.0556640625
108493.0;22994.9951171875
108641.6;22323.6083984375
108650.3;23025.5126953125
108661.7;22277.83203125
108669.1;23101.806640625
108681.3;22293.0908203125
108770.0;23040.771484375
108883.2;22262.5732421875
108913.4;23056.0302734375
109002.4;22201.5380859375
109052.9;23132.32421875
109081.5;22247.314453125
109172.6;22964.4775390625
109183.8;22262.5732421875
109228.0;22964.4775390625
109382.5;22293.0908203125
109397.2;23025.5126953125
109463.3;22232.0556640625
109630.6;23178.1005859375
109641.1;22323.6083984375
109666.2;23071.2890625
109702.4;22277.83203125
109873.8;23056.0302734375
109880.0;22369.384765625
109996.4;23025.5126953125
110122.6;22308.349609375
110128.9;23040.771484375
110141.3;22308.349609375
110155.6;23040.771484375
110182.8;22293.0908203125
110234.7;23132.32421875
110342.5;22216.796875
110374.1;23208.6181640625
110403.5;22308.349609375
110515.5;23010.25390625
110623.5;22232.0556640625
110637.1;22994.9951171875
110663.8;22262.5732421875
110691.5;23025.5126953125
110781.6;22186.279296875
110852.7;23101.806640625
110862.1;22293.0908203125
110914.0;23056.0302734375
110924.0;22277.83203125
110931.8;22979.736328125
110943.2;22308.349609375
110967.4;22933.9599609375
110982.1;22201.5380859375
110994.6;22933.9599609375
111123.5;22308.349609375
111132.6;23040.771484375
111162.0;22262.5732421875
111293.8;23010.25390625
111303.8;22293.0908203125
111426.3;22949.21875
111502.6;22247.314453125
111509.4;23010.25390625
111644.1;22232.0556640625
111775.5;22903.4423828125
111802.7;22216.796875
111835.8;22979.736328125
111883.3;22247.314453125
112073.1;22994.9951171875
112102.9;22232.0556640625
112231.3;22979.736328125
112342.5;22369.384765625
112355.9;23056.0302734375
112362.8;22354.1259765625
112373.7;23071.2890625
112460.3;22399.90234375
112478.5;23086.5478515625
112501.9;22354.1259765625
112514.1;23147.5830078125
112562.7;22277.83203125
112567.5;23025.5126953125
112621.5;22262.5732421875
112798.9;23025.5126953125
112802.8;22216.796875
112816.7;23025.5126953125
112823.0;22354.1259765625
112878.0;22964.4775390625
113001.1;22354.1259765625
113011.5;23223.876953125
113063.7;22247.314453125
113172.7;23132.32421875
113242.5;22247.314453125
113297.3;23101.806640625
113342.1;22293.0908203125
113493.2;23223.876953125
113502.7;22415.1611328125
113530.8;23101.806640625
113701.5;22430.419921875
113711.9;23193.359375
113763.9;22521.97265625
113777.2;23254.39453125
113783.0;22476.1962890625
113871.2;23147.5830078125
113982.5;22491.455078125
113989.9;23223.876953125
114004.6;22460.9375
114136.3;23056.0302734375
114224.0;22308.349609375
114274.8;23208.6181640625
114281.3;22369.384765625
114312.4;23117.0654296875
114323.7;22323.6083984375
114450.9;22964.4775390625
114603.9;22293.0908203125
114617.1;22949.21875
114684.6;22247.314453125
114692.3;22979.736328125
114703.0;22216.796875
114720.0;22994.9951171875
114884.0;22247.314453125
115059.3;23010.25390625
115102.7;22201.5380859375
115176.6;22888.18359375
115304.1;22323.6083984375
115311.5;22994.9951171875
115404.5;22216.796875
115437.1;23010.25390625
115462.7;22171.0205078125
115633.0;22964.4775390625
115644.6;22247.314453125
115711.2;22933.9599609375
115883.3;22247.314453125
115897.2;22964.4775390625
116004.6;22216.796875
116014.9;23010.25390625
116044.2;22232.0556640625
116212.7;22933.9599609375
116302.9;22247.314453125
116310.6;22964.4775390625
116444.4;22247.314453125
116458.0;22979.736328125
116584.3;22247.314453125
116591.6;23117.0654296875
116724.7;22216.796875
116751.9;23132.32421875
116883.3;22262.5732421875
116916.0;31143.1884765625
117006.4;22079.4677734375
117056.6;31158.447265625
117127.1;19546.5087890625
117137.0;31112.6708984375
117147.3;22033.69140625
117157.0;31143.1884765625
117167.4;20248.4130859375
117177.1;31112.6708984375
117311.3;21865.8447265625
117329.1;39505.0048828125
117343.3;22232.0556640625
117352.3;22842.4072265625
117363.8;22094.7265625
117497.7;22827.1484375
117664.6;22171.0205078125
117699.5;22811.8896484375
117707.9;21987.9150390625
117718.3;22827.1484375
117742.7;21881.103515625
117774.7;22933.9599609375
117805.3;21804.8095703125
117839.0;22918.701171875
117850.4;21591.1865234375
117857.8;22979.736328125
118026.9;21408.0810546875
118089.3;22857.666015625
118160.9;21286.0107421875
118293.1;22872.9248046875
118327.5;21286.0107421875
118353.4;22872.9248046875
118382.3;21270.751953125
118459.2;31005.859375
118459.5;19668.5791015625
118529.7;31082.1533203125
118580.2;19683.837890625
118610.1;30822.75390625
118620.3;22064.208984375
118650.2;31021.1181640625
118804.6;21469.1162109375
118822.2;39459.228515625
118840.9;22399.90234375
118932.2;23208.6181640625
119102.2;22094.7265625
119134.0;22857.666015625
119142.8;21774.2919921875
119216.8;22827.1484375
119223.5;21392.822265625
119254.7;22994.9951171875
119300.5;21286.0107421875
119456.4;22918.701171875
119512.9;21286.0107421875
119557.3;22964.4775390625
119605.4;21270.751953125
119635.8;22888.18359375
119683.6;21270.751953125
119754.4;22796.630859375
119764.0;21270.751953125
119876.7;22933.9599609375
119886.0;21438.5986328125
119912.8;31097.412109375
119933.3;19714.35546875
120053.4;31127.9296875
120053.7;19821.1669921875
120073.5;30990.6005859375
120074.0;22323.6083984375
120113.6;31311.03515625
120113.9;22308.349609375
120173.9;30944.82421875
120314.8;22659.3017578125
120315.6;39627.0751953125
120323.2;22293.0908203125
120358.8;23056.0302734375
120564.8;22048.9501953125
120595.8;22888.18359375
120606.9;21530.1513671875
120633.2;23040.771484375
120725.6;21606.4453125
120755.8;23101.806640625
120805.0;21469.1162109375
120817.1;22994.9951171875
120847.3;21545.41015625
121009.0;22994.9951171875
121101.7;21347.0458984375
121159.4;22964.4775390625
121189.6;21392.822265625
121216.8;22994.9951171875
121371.2;21392.822265625
121455.1;30685.4248046875
121465.3;19515.9912109375
121575.6;31143.1884765625
121585.9;19515.9912109375
121595.7;31173.7060546875
121605.9;19485.4736328125
121790.2;37765.5029296875
121807.0;22201.5380859375
121807.6;39367.67578125
121808.6;22216.796875
121897.4;23345.947265625
121904.7;22201.5380859375
121914.7;22872.9248046875
121927.4;22186.279296875
121974.9;23025.5126953125
121985.4;22201.5380859375
121993.3;22949.21875
122006.5;22247.314453125
122039.8;22979.736328125
122045.7;22262.5732421875
122058.6;22979.736328125
122085.4;22262.5732421875
122157.5;22979.736328125
122246.7;22232.0556640625
122258.9;22903.4423828125
122263.8;21865.8447265625
122273.2;23040.771484375
122329.4;21926.8798828125
122374.1;23025.5126953125
122464.0;21972.65625
122474.0;23056.0302734375
122542.4;22003.173828125
122574.9;23086.5478515625
122783.0;21621.7041015625
122814.2;23056.0302734375
122862.2;21697.998046875
122957.3;30929.5654296875
122977.7;22308.349609375
122997.4;31021.1181640625
123058.1;22338.8671875
123077.8;31219.482421875
123098.1;19638.0615234375
123128.2;31127.9296875
123158.4;19882.2021484375
123170.4;30548.095703125
123282.5;21789.55078125
123300.1;29922.4853515625
123307.9;22354.1259765625
123379.8;23086.5478515625
123404.9;22277.83203125
123433.2;23025.5126953125
123444.0;22247.314453125
123495.8;22903.4423828125
123627.0;22247.314453125
123655.7;22949.21875
123747.6;22125.244140625
123780.3;22994.9951171875
123826.5;22201.5380859375
123834.7;22979.736328125
123944.2;21972.65625
123995.1;22888.18359375
124027.9;21865.8447265625
124072.0;22888.18359375
124086.2;21438.5986328125
124115.5;22933.9599609375
124206.4;21347.0458984375
124315.3;22796.630859375
124368.2;21591.1865234375
124440.0;31265.2587890625
124490.4;19744.873046875
124580.6;31311.03515625
124630.9;19531.25
124791.9;39260.8642578125
124807.8;22109.9853515625
124817.1;22796.630859375
124847.5;22048.9501953125
124875.0;22735.595703125
124926.2;22048.9501953125
125077.0;22689.8193359375
125105.0;22003.173828125
125138.7;22674.560546875
125147.3;21972.65625
125195.3;22735.595703125
125226.4;22003.173828125
125238.8;22750.8544921875
125242.0;21987.9150390625
125298.1;22750.8544921875
125305.0;21972.65625
125319.9;22827.1484375
125404.7;21942.138671875
125492.0;22872.9248046875
125501.6;21377.5634765625
125518.7;23071.2890625
125628.5;21331.787109375
125695.7;22994.9951171875
125722.8;21392.822265625
125740.2;22979.736328125
125846.4;21392.822265625
125880.1;30838.0126953125
125880.7;19836.42578125
126000.7;31127.9296875
126021.1;19638.0615234375
126030.9;31021.1181640625
126041.2;22232.0556640625
126051.1;30853.271484375
126101.3;22048.9501953125
126111.3;30914.306640625
126121.3;22201.5380859375
126260.1;30181.884765625
126265.5;21972.65625
126283.6;39520.263671875
126284.2;22323.6083984375
126299.0;22933.9599609375
126369.3;22171.0205078125
126477.5;22796.630859375
126484.3;21789.55078125
126561.5;23010.25390625
126604.5;21575.927734375
126619.8;22949.21875
126634.9;21347.0458984375
126676.9;22857.666015625
126699.7;21362.3046875
126737.4;22918.701171875
126785.5;21255.4931640625
126891.6;22857.666015625
126891.9;21286.0107421875
126898.3;22888.18359375
126904.7;21286.0107421875
126977.4;22857.666015625
126986.4;21270.751953125
127150.6;22964.4775390625
127235.7;21316.5283203125
127237.6;22796.630859375
127363.6;30929.5654296875
127374.0;19958.49609375
127413.6;31097.412109375
127434.0;22262.5732421875
127453.7;31265.2587890625
127454.1;19775.390625
127464.0;30990.6005859375
127514.4;19851.6845703125
127554.1;30685.4248046875
127554.6;22430.419921875
127614.4;31082.1533203125
127614.6;22460.9375
127634.4;31143.1884765625
127773.9;23254.39453125
127777.1;39718.6279296875
127788.3;22262.5732421875
127959.3;23040.771484375
128070.4;22293.0908203125
128082.8;23025.5126953125
128085.0;22216.796875
128094.6;23010.25390625
128129.3;22232.0556640625
128220.3;22872.9248046875
128348.3;21942.138671875
128354.7;22735.595703125
128525.5;21438.5986328125
128737.3;22827.1484375
128809.5;21667.48046875
128856.4;30929.5654296875
128906.6;21865.8447265625
128916.6;30914.306640625
128926.8;21926.8798828125
128936.7;30929.5654296875
128946.7;21911.62109375
128956.8;31082.1533203125
128966.8;19485.4736328125
128976.9;31036.376953125
128986.9;22033.69140625
129077.2;31005.859375
129087.3;22033.69140625
129097.3;30899.0478515625
129107.4;22201.5380859375
129246.1;30029.296875
129251.5;21392.822265625
129268.8;39382.9345703125
129305.4;21575.927734375
129336.4;22964.4775390625
129347.7;21392.822265625
129354.2;22720.3369140625
129511.9;21392.822265625
129582.6;22796.630859375
129586.1;21255.4931640625
129633.0;22994.9951171875
129667.2;21377.5634765625
129684.4;22811.8896484375
129719.9;21347.0458984375
129840.5;22766.11328125
129847.7;21240.234375
129858.4;22994.9951171875
129862.3;21484.375
129876.2;22842.4072265625
129899.2;21392.822265625
129959.2;22872.9248046875
130041.0;21560.6689453125
130042.2;22903.4423828125
130046.2;21408.0810546875
130059.0;22994.9951171875
130109.4;21286.0107421875
130118.3;23010.25390625
130124.9;21499.6337890625
130257.4;22811.8896484375
130306.9;21316.5283203125
130321.0;22842.4072265625
130333.6;21347.0458984375
130379.1;31066.89453125
130379.5;19943.2373046875
130479.5;31295.7763671875
130500.0;19790.6494140625
130509.8;31036.376953125
130519.9;22354.1259765625
130559.8;31158.447265625
130560.2;22232.0556640625
130600.0;31021.1181640625
130715.3;22338.8671875
130744.4;33111.572265625
130749.3;22262.5732421875
130762.0;39749.1455078125
130767.6;22247.314453125
130818.3;23056.0302734375
131010.8;21942.138671875
131019.0;22979.736328125
131090.2;21820.068359375
131115.5;22827.1484375
131127.3;21362.3046875
131137.6;22811.8896484375
131170.7;21408.0810546875
131180.6;22811.8896484375
131229.6;21453.857421875
131239.4;22872.9248046875
131306.0;21453.857421875
131315.5;22811.8896484375
131348.3;21499.6337890625
131358.4;22796.630859375
131408.1;21484.375
131411.4;22720.3369140625
131548.6;21484.375
131581.7;22720.3369140625
131585.7;21453.857421875
131621.0;22796.630859375
131628.0;21438.5986328125
131657.9;22796.630859375
131665.1;21377.5634765625
131700.1;22720.3369140625
131702.2;21331.787109375
131738.6;22796.630859375
131739.3;21316.5283203125
131820.3;22781.3720703125
131829.7;21255.4931640625
132000.5;22979.736328125
132087.2;22216.796875
132179.4;22964.4775390625
132187.6;22323.6083984375
132281.2;22964.4775390625
132292.1;22277.83203125
132314.8;22933.9599609375
132328.3;22277.83203125
132441.4;22903.4423828125
132490.4;22262.5732421875
132498.6;22994.9951171875
132549.3;22232.0556640625
132556.9;22994.9951171875
132569.2;22232.0556640625
132647.8;22888.18359375
132750.9;22277.83203125
132756.5;22964.4775390625
132769.9;22277.83203125
132823.7;22933.9599609375
132829.8;22232.0556640625
132982.8;22857.666015625
133071.1;22171.0205078125
133260.6;22964.4775390625
133349.5;22155.76171875
133378.2;22964.4775390625
133388.3;22216.796875
133539.3;22857.666015625
133570.0;22171.0205078125
133743.9;23010.25390625
133811.1;22277.83203125
133820.0;23025.5126953125
133830.8;22216.796875
133981.9;22872.9248046875
134049.2;22201.5380859375
134061.3;22888.18359375
134128.5;22201.5380859375
134142.2;22933.9599609375
134150.2;22232.0556640625
134160.0;22918.701171875
134333.8;22262.5732421875
134342.9;22933.9599609375
134469.4;22247.314453125
134482.3;23010.25390625
134490.3;22232.0556640625
134500.1;23040.771484375
134569.4;22171.0205078125
134747.3;22933.9599609375
134769.2;22216.796875
134781.9;22994.9951171875
134791.4;22262.5732421875
134958.9;22949.21875
134970.4;22216.796875
134976.7;23025.5126953125
134988.7;22277.83203125
135062.7;22872.9248046875
135149.0;22262.5732421875
135159.6;22827.1484375
135170.6;22171.0205078125
135261.4;23025.5126953125
135270.9;22262.5732421875
135364.2;22979.736328125
135511.8;22323.6083984375
135521.4;22979.736328125
135530.8;22247.314453125
135682.5;22964.4775390625
135692.6;22262.5732421875
135800.1;22964.4775390625
135806.0;22308.349609375
135940.4;22842.4072265625
135951.0;22262.5732421875
135980.9;22949.21875
136009.9;22247.314453125
136062.9;23056.0302734375
136072.7;22293.0908203125
136161.7;22903.4423828125
136250.1;22277.83203125
136260.5;23101.806640625
136310.5;22247.314453125
136435.4;23056.0302734375
136451.6;22247.314453125
136597.5;22994.9951171875
136791.8;22186.279296875
136836.7;22979.736328125
136850.6;22232.0556640625
136923.7;22872.9248046875
136930.6;22216.796875
136958.3;22872.9248046875
136969.5;22247.314453125
137022.5;22872.9248046875
137030.7;22293.0908203125
137119.4;22888.18359375
137210.9;22293.0908203125
137222.2;22964.4775390625
137233.1;22262.5732421875
137238.0;22979.736328125
137290.1;22201.5380859375
137444.5;22949.21875
137570.9;22308.349609375
137578.9;23056.0302734375
137590.1;22262.5732421875
137665.9;22979.736328125
137811.4;22247.314453125
137823.0;23010.25390625
137872.8;22232.0556640625
137904.0;23040.771484375
137929.8;22216.796875
137984.0;23010.25390625
138049.4;22247.314453125
138121.3;22979.736328125
138251.5;22262.5732421875
138268.5;22994.9951171875
138333.2;22247.314453125
138360.4;22964.4775390625
138372.8;22216.796875
138501.7;23117.0654296875
138511.0;22323.6083984375
138544.2;22994.9951171875
138590.4;22277.83203125
138740.9;22872.9248046875
138791.2;22262.5732421875
138802.4;22888.18359375
138870.6;22171.0205078125
139003.7;22918.701171875
139031.1;22186.279296875
139087.7;22964.4775390625
139092.3;22262.5732421875
139104.5;23056.0302734375
139131.3;22216.796875
139263.6;23010.25390625
139331.4;22293.0908203125
139343.6;23056.0302734375
139350.8;22338.8671875
139477.9;22933.9599609375
139592.1;22323.6083984375
139602.5;22918.701171875
139673.0;22186.279296875
139702.1;23025.5126953125
139712.8;22232.0556640625
139880.9;22903.4423828125
139951.5;22171.0205078125
140161.5;23239.1357421875
140172.4;22445.6787109375
140244.5;23208.6181640625
140269.9;22430.419921875
140318.6;23040.771484375
140432.7;22430.419921875
140441.1;23056.0302734375
140451.4;22415.1611328125
140465.8;23086.5478515625
140593.8;22384.6435546875
140605.1;23071.2890625
140609.5;22323.6083984375
140663.4;22933.9599609375
140672.9;22354.1259765625
140704.9;22872.9248046875
140833.0;22338.8671875
140838.3;22918.701171875
140894.3;22232.0556640625
141043.8;22979.736328125
141151.3;22277.83203125
141165.3;23025.5126953125
141171.0;22262.5732421875
141220.6;22964.4775390625
141233.5;22354.1259765625
141385.5;22964.4775390625
141551.6;22338.8671875
141564.2;22949.21875
141654.7;22293.0908203125
141665.9;23010.25390625
141693.1;22216.796875
141724.1;31280.517578125
141754.1;22125.244140625
141764.1;30838.0126953125
141854.4;22109.9853515625
141914.3;30868.5302734375
141914.8;19744.873046875
141924.6;31219.482421875
141934.7;19561.767578125
141944.6;31204.2236328125
141975.0;19821.1669921875
141984.7;31097.412109375
142130.7;22247.314453125
142136.7;39520.263671875
142170.5;22186.279296875
142183.4;22903.4423828125
142189.4;22216.796875
142247.2;22872.9248046875
142352.7;22201.5380859375
142377.9;22872.9248046875
142410.6;22186.279296875
142420.2;22918.701171875
142532.8;22171.0205078125
142541.7;22964.4775390625
142614.6;22155.76171875
142622.4;22964.4775390625
142713.4;21972.65625
142825.2;22994.9951171875
142873.7;22033.69140625
142883.9;22842.4072265625
143034.2;22048.9501953125
143042.5;22888.18359375
143055.0;21850.5859375
143081.3;22811.8896484375
143092.1;21820.068359375
143164.6;22842.4072265625
143171.5;21804.8095703125
143323.0;23040.771484375
143333.1;22308.349609375
143442.5;22872.9248046875
143534.5;22293.0908203125
143545.2;22994.9951171875
143552.0;22293.0908203125
143665.7;22933.9599609375
143755.2;22171.0205078125
143785.2;22964.4775390625
143834.0;22171.0205078125
143864.2;22964.4775390625
143872.2;22201.5380859375
143941.2;22918.701171875
144072.3;22308.349609375
144087.3;23010.25390625
144212.1;22171.0205078125
144242.3;22872.9248046875
144371.6;22247.314453125
144420.0;22949.21875
144575.6;22308.349609375
144581.9;23010.25390625
144792.3;22186.279296875
144844.6;22933.9599609375
144850.4;22308.349609375
144959.2;22872.9248046875
144972.5;22216.796875
144999.7;22811.8896484375
145154.0;22247.314453125
145182.4;22857.666015625
145191.6;22232.0556640625
145207.1;22964.4775390625
145273.0;22293.0908203125
145283.2;22964.4775390625
145412.9;22277.83203125
145424.5;22979.736328125
145476.0;22247.314453125
145601.3;22979.736328125
145634.1;22293.0908203125
145665.5;22964.4775390625
145792.1;22232.0556640625
145803.8;22964.4775390625
145811.8;22262.5732421875
145900.6;22857.666015625
145911.6;22293.0908203125
146082.4;22827.1484375
146112.9;22247.314453125
146122.9;22979.736328125
146132.7;22308.349609375
146260.2;22918.701171875
146396.6;22323.6083984375
146404.4;22949.21875
146412.4;22262.5732421875
146443.9;22949.21875
146614.1;22262.5732421875
146629.6;22964.4775390625
146653.4;22293.0908203125
146704.2;22842.4072265625
146855.1;22293.0908203125
146867.6;22903.4423828125
146871.1;22354.1259765625
146883.4;22903.4423828125
146972.6;22277.83203125
146987.1;22949.21875
146993.8;22232.0556640625
147129.3;22888.18359375
147254.0;22186.279296875
147422.6;23056.0302734375
147432.2;22293.0908203125
147563.8;22933.9599609375
147633.3;22293.0908203125
147644.8;23056.0302734375
147752.7;22186.279296875
147863.1;22857.666015625
147872.3;22262.5732421875
148016.2;22888.18359375
148028.7;22354.1259765625
148161.4;22857.666015625
148174.3;22247.314453125
148185.1;22857.666015625
148191.8;22293.0908203125
148193.0;22903.4423828125
148211.8;22308.349609375
148224.6;22964.4775390625
148273.3;22247.314453125
148303.6;22979.736328125
148313.9;22247.314453125
148319.4;23010.25390625
148352.1;22232.0556640625
148383.6;23040.771484375
148391.6;22308.349609375
148522.9;22994.9951171875
148672.4;22293.0908203125
148728.4;23071.2890625
148732.6;22186.279296875
148883.5;22857.666015625
148894.0;22232.0556640625
148902.8;22781.3720703125
149071.5;22262.5732421875
149106.7;22842.4072265625
149153.1;22216.796875
149185.7;23086.5478515625
149190.6;22262.5732421875
149204.4;22872.9248046875
149391.8;22216.796875
149398.1;22811.8896484375
149411.7;22155.76171875
149421.8;23040.771484375
149472.7;22171.0205078125
149659.9;22903.4423828125
149691.5;22308.349609375
149708.3;23010.25390625
149751.0;22247.314453125
149783.4;22964.4775390625
149791.7;22293.0908203125
149832.8;22857.666015625
149933.4;22232.0556640625
149963.9;22842.4072265625
150032.1;22247.314453125
150042.5;22857.666015625
150071.4;22216.796875
150103.5;22903.4423828125
150154.4;22247.314453125
150163.8;22918.701171875
150253.3;22216.796875
150382.2;23101.806640625
150391.8;22232.0556640625
150482.0;22964.4775390625
150551.9;22216.796875
150641.1;22888.18359375
150791.9;22201.5380859375
150801.2;22811.8896484375
150854.4;22216.796875
150884.2;22842.4072265625
150892.1;22232.0556640625
150909.9;22796.630859375
150913.8;22232.0556640625
150922.9;22796.630859375
150993.5;22262.5732421875
151064.6;22781.3720703125
151071.3;22216.796875
151161.9;22903.4423828125
151192.2;22262.5732421875
151255.8;22979.736328125
151273.5;22293.0908203125
151281.5;23010.25390625
151293.3;22232.0556640625
151442.4;22872.9248046875
151492.9;22262.5732421875
151504.9;23010.25390625
151593.0;22232.0556640625
151599.8;23025.5126953125
151652.6;22247.314453125
151764.9;22918.701171875
151833.7;22216.796875
151866.7;22994.9951171875
151872.3;22277.83203125
151944.8;22933.9599609375
152051.9;22186.279296875
152062.4;22918.701171875
152092.6;22201.5380859375
152145.4;23040.771484375
152151.0;22247.314453125
152262.0;23040.771484375
152291.8;22277.83203125
152303.5;22949.21875
152312.5;22293.0908203125
152362.8;22857.666015625
152371.9;22262.5732421875
152462.6;22857.666015625
152511.2;22354.1259765625
152525.1;22903.4423828125
152633.1;22293.0908203125
152647.4;23025.5126953125
152734.3;22369.384765625
152735.2;22613.525390625
152741.3;22979.736328125
152793.0;22247.314453125
152819.4;22949.21875
152852.4;22277.83203125
152879.7;22842.4072265625
152909.5;22247.314453125
152965.7;22903.4423828125
152972.1;22277.83203125
153083.2;22567.7490234375
153093.1;30914.306640625
153143.3;22216.796875
153163.1;30853.271484375
153183.7;22094.7265625
153203.3;30883.7890625
153203.8;22216.796875
153223.3;31143.1884765625
153263.6;22232.0556640625
153283.5;31066.89453125
153303.8;19760.1318359375
153363.8;30944.82421875
153488.2;21438.5986328125
153505.7;39550.78125
153511.4;22247.314453125
153662.6;22842.4072265625
153673.5;22186.279296875
153685.4;22964.4775390625
153776.0;22033.69140625
153782.3;22949.21875
153816.1;21881.103515625
153861.4;22796.630859375
153874.2;21987.9150390625
153922.7;22842.4072265625
154057.4;22048.9501953125
154068.0;22933.9599609375
154153.0;21469.1162109375
154161.9;22842.4072265625
154212.6;21347.0458984375
154230.1;22796.630859375
154254.9;21331.787109375
154304.4;22842.4072265625
154372.5;21347.0458984375
154407.0;22827.1484375
154415.0;21331.787109375
154448.5;22888.18359375
154470.7;21362.3046875
154483.1;22979.736328125
154554.4;21301.26953125
154584.3;31143.1884765625
154614.6;19561.767578125
154684.7;31356.8115234375
154735.1;20095.8251953125
154744.8;31112.6708984375
154754.8;22247.314453125
154845.1;31402.587890625
154950.0;22445.6787109375
154979.1;32424.9267578125
154994.3;23193.359375
154996.8;39535.5224609375
155015.4;22384.6435546875
155160.9;22994.9951171875
155172.3;22277.83203125
155186.6;23040.771484375
155288.3;22277.83203125
155300.3;23071.2890625
155472.4;21987.9150390625
155502.9;23025.5126953125
155695.1;21926.8798828125
155703.5;22933.9599609375
155730.5;21942.138671875
155805.7;22872.9248046875
155880.5;21591.1865234375
155923.9;22872.9248046875
156053.3;21438.5986328125
156165.3;30624.3896484375
156205.6;22201.5380859375
156225.5;30639.6484375
156225.9;22033.69140625
156245.6;30792.236328125
156266.0;19577.0263671875
156305.8;30700.68359375
156326.2;19683.837890625
156488.3;39581.298828125
156489.2;22216.796875
156450.2;25100.7080078125
156511.4;22186.279296875
156541.5;23010.25390625
156591.1;22186.279296875
156701.8;22994.9951171875
156709.5;22171.0205078125
156882.3;23040.771484375
156891.3;22186.279296875
157063.7;23010.25390625
157112.9;22171.0205078125
157139.2;23010.25390625
157270.0;22094.7265625
157281.5;22994.9951171875
157470.2;21865.8447265625
157482.1;22994.9951171875
157553.7;21850.5859375
157567.9;31036.376953125
157718.4;22399.90234375
157728.5;31219.482421875
157819.0;21408.0810546875
157979.7;39352.4169921875
157989.6;22262.5732421875
158064.0;23010.25390625
158134.3;21957.3974609375
158144.1;22994.9951171875
158186.5;21591.1865234375
158205.4;22842.4072265625
158228.8;21545.41015625
158239.0;22811.8896484375
158276.7;21469.1162109375
158285.0;22705.078125
158290.7;21469.1162109375
158308.2;22674.560546875
158313.6;21469.1162109375
158318.6;22689.8193359375
158318.8;21377.5634765625
158344.6;22811.8896484375
158388.0;21377.5634765625
158439.6;22842.4072265625
158450.2;21453.857421875
158481.1;22857.666015625
158505.4;21347.0458984375
158540.4;22796.630859375
158560.0;21377.5634765625
158584.0;22811.8896484375
158615.3;21286.0107421875
158765.7;22949.21875
158802.8;21377.5634765625
158807.2;22949.21875
158813.6;21362.3046875
158840.8;23056.0302734375
158852.2;21392.822265625
158906.0;22872.9248046875
159046.8;21514.892578125
159101.5;30624.3896484375
159111.7;19500.732421875
159211.7;30685.4248046875
159232.3;19531.25
159242.0;30715.9423828125
159252.1;19348.14453125
159262.1;30776.9775390625
159312.6;19500.732421875
159474.0;39474.4873046875
159491.8;22232.0556640625
159605.5;22857.666015625
159653.2;21942.138671875
159728.2;22964.4775390625
159733.5;22048.9501953125
159796.4;22979.736328125
159813.1;21957.3974609375
159839.9;22994.9951171875
159971.9;21591.1865234375
159986.6;22811.8896484375
159997.8;21286.0107421875
160042.8;22827.1484375
160045.3;21331.787109375
160080.0;22933.9599609375
160124.9;21423.33984375
160146.2;23147.5830078125
160274.7;21255.4931640625
160405.1;23025.5126953125
160528.1;21331.787109375
160622.7;31250.0
160703.5;20004.2724609375
160713.3;31234.7412109375
160723.4;22506.7138671875
160753.4;31066.89453125
160763.5;22445.6787109375
160823.3;31188.96484375
160953.9;23086.5478515625
160965.2;39535.5224609375
160991.0;22338.8671875
161100.6;22964.4775390625
161191.3;22186.279296875
161222.0;22964.4775390625
161272.2;22232.0556640625
161304.2;23101.806640625
161351.3;22201.5380859375
161363.5;22994.9951171875
161372.8;22262.5732421875
161422.8;22949.21875
161553.6;22216.796875
161561.2;22979.736328125
161611.9;22201.5380859375
161629.4;23010.25390625
161734.5;22079.4677734375
161785.6;23010.25390625
161825.2;21560.6689453125
161826.1;23025.5126953125
161908.5;21316.5283203125
161983.2;22872.9248046875
162014.2;21286.0107421875
162105.2;31188.96484375
162115.4;22094.7265625
162125.3;31204.2236328125
162135.5;19622.802734375
162145.4;31143.1884765625
162155.4;22140.5029296875
162255.5;31143.1884765625
162255.7;22079.4677734375
162305.9;31051.6357421875
162440.1;21575.927734375
162458.1;39566.0400390625
162489.2;22293.0908203125
162524.2;22964.4775390625
162534.8;22216.796875
162684.3;22903.4423828125
162709.7;22201.5380859375
162722.3;22903.4423828125
162795.2;22003.173828125
162798.4;22903.4423828125
162817.8;22048.9501953125
162823.1;23178.1005859375
162828.2;21820.068359375
162981.2;22827.1484375
163012.9;21743.7744140625
163064.2;22979.736328125
163153.2;21804.8095703125
163180.8;22979.736328125
163256.3;21301.26953125
163261.8;23010.25390625
163450.1;21270.751953125
163522.4;22796.630859375
163523.0;21392.822265625
163577.7;30609.130859375
163588.0;19485.4736328125
163718.2;30731.201171875
163788.5;19485.4736328125
163949.4;39337.158203125
163950.7;22262.5732421875
163933.4;24536.1328125
164054.1;21972.65625
164260.7;23071.2890625
164394.0;21377.5634765625
164418.7;22994.9951171875
164514.2;21286.0107421875
164516.5;22949.21875
164559.3;21377.5634765625
164564.9;22949.21875
164689.4;21286.0107421875
164702.2;23147.5830078125
164707.1;21316.5283203125
164815.8;22857.666015625
164972.8;21270.751953125
164982.8;23056.0302734375
164994.1;21270.751953125
165028.7;30990.6005859375
165059.0;19577.0263671875
165069.0;31082.1533203125
165119.3;19744.873046875
165159.0;30914.306640625
165179.5;19836.42578125
165189.3;30822.75390625
165239.7;20782.470703125
165249.5;30685.4248046875
165259.8;22094.7265625
165299.4;31112.6708984375
165431.5;23117.0654296875
165440.8;39459.228515625
165471.7;22232.0556640625
165478.8;23193.359375
165511.4;22247.314453125
165580.7;23010.25390625
165751.0;22216.796875
165805.9;23010.25390625
165849.8;21942.138671875
165865.2;22964.4775390625
165895.3;21682.7392578125
165923.5;22994.9951171875
166050.7;21545.41015625
166058.9;23086.5478515625
166071.6;21453.857421875
166143.9;22872.9248046875
166150.8;21484.375
166302.6;22796.630859375
166334.0;21469.1162109375
166334.6;22933.9599609375
166455.7;21453.857421875
166461.1;22918.701171875
166473.4;21331.787109375
166580.9;30609.130859375
166631.0;21987.9150390625
166641.1;30700.68359375
166751.5;21942.138671875
166761.4;30792.236328125
166771.6;19424.4384765625
166933.2;39428.7109375
166934.0;22399.90234375
166934.4;23345.947265625
166950.4;22216.796875
167065.8;23178.1005859375
167073.7;22262.5732421875
167106.3;23086.5478515625
167211.8;22064.208984375
167242.6;22933.9599609375
167314.1;21926.8798828125
167323.6;22949.21875
167371.1;21591.1865234375
167439.2;22872.9248046875
167473.6;21667.48046875
167480.7;22994.9951171875
167553.0;21652.2216796875
167579.5;22933.9599609375
167591.7;21331.787109375
167604.2;23071.2890625
167728.5;21392.822265625
167759.3;22888.18359375
167770.8;21316.5283203125
167936.1;23025.5126953125
167968.9;21423.33984375
167983.5;23010.25390625
167997.1;21560.6689453125
168022.2;31082.1533203125
168062.7;19897.4609375
168102.5;31204.2236328125
168122.9;19836.42578125
168132.8;30838.0126953125
168142.9;22384.6435546875
168242.9;31204.2236328125
168378.2;22354.1259765625
168407.3;32852.1728515625
168423.7;22476.1962890625
168424.5;39611.81640625
168431.7;22247.314453125
168483.2;22994.9951171875
168615.4;22048.9501953125
168643.3;22811.8896484375
168652.5;21759.033203125
168656.4;22842.4072265625
168657.7;21728.515625
168659.6;22827.1484375
168668.1;21423.33984375
168690.0;22857.666015625
168693.1;21392.822265625
168781.9;22796.630859375
168792.8;21499.6337890625
168815.5;22796.630859375
168828.2;21347.0458984375
168880.0;22857.666015625
168888.2;21331.787109375
168962.0;22827.1484375
168973.0;21301.26953125
169119.8;23056.0302734375
169230.0;21347.0458984375
169358.9;22964.4775390625
169395.1;21362.3046875
169443.9;22903.4423828125
169451.4;21331.787109375
169460.7;22964.4775390625
169492.8;21652.2216796875
169504.6;30776.9775390625
169575.0;22048.9501953125
169604.9;30914.306640625
169675.2;22171.0205078125
169685.3;30853.271484375
169735.5;19470.21484375
169917.1;39733.88671875
169933.1;22415.1611328125
170082.2;23071.2890625
170090.0;22277.83203125
170103.0;23086.5478515625
170190.7;21987.9150390625
170196.9;23025.5126953125
170312.6;21926.8798828125
170314.5;22979.736328125
170328.2;21774.2919921875
170340.2;23117.0654296875
170414.7;21591.1865234375
170418.3;23056.0302734375
170531.2;21621.7041015625
170581.2;22918.701171875
170589.3;21575.927734375
170604.1;23208.6181640625
170668.7;21469.1162109375
170700.9;23086.5478515625
170748.1;21438.5986328125
170758.2;23147.5830078125
170790.4;21469.1162109375
170862.9;22994.9951171875
170984.4;21804.8095703125
171045.4;31005.859375
171045.8;22293.0908203125
171055.7;31036.376953125
171106.0;22155.76171875
171125.7;31066.89453125
171126.1;21987.9150390625
171156.1;31112.6708984375
171166.3;19668.5791015625
171176.1;31234.7412109375
171186.2;22155.76171875
171216.3;31143.1884765625
171361.3;22293.0908203125
171390.4;33111.572265625
171407.4;22583.0078125
171407.7;39505.0048828125
171572.0;21453.857421875
171741.1;22964.4775390625
171847.3;21316.5283203125
171882.3;23056.0302734375
172001.2;21438.5986328125
172003.8;23193.359375
172016.5;21316.5283203125
172043.3;22964.4775390625
172107.9;21240.234375
172120.2;22796.630859375
172235.1;21301.26953125
172283.4;22933.9599609375
172301.9;21316.5283203125
172379.2;22994.9951171875
172471.5;21331.787109375
172556.5;31158.447265625
172576.9;19805.908203125
172586.8;31127.9296875
172717.4;19714.35546875
172757.1;31173.7060546875
172881.5;21560.6689453125
172881.6;26123.046875
172929.4;22445.6787109375
172982.0;23117.0654296875
172991.9;22491.455078125
173074.9;23086.5478515625
173189.6;22399.90234375
173202.4;23086.5478515625
173273.2;22415.1611328125
173279.5;23147.5830078125
173387.8;22445.6787109375
173391.2;23284.912109375
173451.6;22415.1611328125
173502.9;23132.32421875
173530.1;22384.6435546875
173580.0;22994.9951171875
173749.8;22460.9375
173764.8;23071.2890625
173767.8;22460.9375
173903.2;23071.2890625
173970.7;22430.419921875
173979.3;23147.5830078125
173988.3;22415.1611328125
173996.1;23025.5126953125
174069.7;22384.6435546875
174096.9;23117.0654296875
174108.7;22415.1611328125
174187.8;23056.0302734375
174310.8;22415.1611328125
174321.2;22994.9951171875
174330.0;22384.6435546875
174505.0;23086.5478515625
174550.3;22338.8671875
174640.4;23162.841796875
174652.6;22430.419921875
174761.0;23117.0654296875
174929.5;22399.90234375
175000.2;23376.46484375
175049.4;22399.90234375
175103.0;23147.5830078125
175229.9;22399.90234375
175260.2;23223.876953125
175388.7;22354.1259765625
175577.5;23056.0302734375
175588.7;22415.1611328125
175719.4;23056.0302734375
175848.5;22415.1611328125
175862.1;23208.6181640625
175930.6;22399.90234375
175974.8;23193.359375
176052.4;22415.1611328125
176177.4;23025.5126953125
176290.4;22476.1962890625
176295.0;23056.0302734375
176311.2;22430.419921875
176319.7;23101.806640625
176471.7;22430.419921875
176503.5;23101.806640625
176531.1;22415.1611328125
176541.1;22903.4423828125
176570.0;22415.1611328125
176587.5;22872.9248046875
176732.1;22430.419921875
176739.7;23025.5126953125
176811.2;22262.5732421875
176918.6;22842.4072265625
177108.0;22216.796875
177143.0;22964.4775390625
177152.2;22293.0908203125
177296.2;23071.2890625
177428.9;22399.90234375
177502.8;23193.359375
177570.7;22476.1962890625
177578.9;23178.1005859375
177709.2;22598.2666015625
177921.8;23345.947265625
177950.0;22689.8193359375
177981.1;23330.6884765625
177986.7;22750.8544921875
178039.4;23269.6533203125
178195.1;22674.560546875
178200.0;22933.9599609375
178200.1;22827.1484375
178202.3;22933.9599609375
178207.2;22552.490234375
178208.4;22827.1484375
178211.2;22567.7490234375
178217.3;22964.4775390625
178219.9;22705.078125
178223.1;22918.701171875
178224.8;22674.560546875
178225.2;22903.4423828125
178225.5;22644.04296875
178228.5;22567.7490234375
178230.5;22705.078125
178231.0;22552.490234375
178232.0;22705.078125
178232.2;22552.490234375
178233.1;22903.4423828125
178234.4;22613.525390625
178240.4;22903.4423828125
178249.2;22567.7490234375
178249.9;22872.9248046875
178250.8;22537.2314453125
178260.8;22933.9599609375
178268.7;22552.490234375
178272.5;22781.3720703125
178274.3;22659.3017578125
178274.6;22979.736328125
178275.4;22689.8193359375
178275.6;22857.666015625
178278.0;22689.8193359375
178281.5;22918.701171875
178290.6;22567.7490234375
178295.8;22903.4423828125
178298.5;22689.8193359375
178299.3;23071.2890625
178300.0;22796.630859375
178225.1;22766.11328125
178250.2;22644.04296875
178275.3;22720.3369140625
178300.1;22750.8544921875
178302.8;22872.9248046875
178304.2;22689.8193359375
178304.4;22857.666015625
178309.7;22521.97265625
178316.1;22903.4423828125
178316.2;22705.078125
178320.1;22933.9599609375
178323.9;22705.078125
178324.0;22949.21875
178330.7;22460.9375
178331.9;22872.9248046875
178333.4;22567.7490234375
178336.1;22872.9248046875
178339.3;22720.3369140625
178339.8;23086.5478515625
178345.5;22506.7138671875
178346.3;22705.078125
178347.9;22476.1962890625
178351.2;22705.078125
178351.5;22506.7138671875
178360.2;22903.4423828125
178367.4;22430.419921875
178368.1;22750.8544921875
178369.3;22460.9375
178376.0;22842.4072265625
178376.9;22613.525390625
178380.3;23056.0302734375
178385.0;22491.455078125
178385.3;22720.3369140625
178388.7;22491.455078125
178389.8;22705.078125
178390.3;22491.455078125
178391.4;22750.8544921875
178392.2;22491.455078125
178392.5;22674.560546875
178394.6;22552.490234375
178394.8;22766.11328125
178396.8;22628.7841796875
178400.0;22827.1484375
178400.1;22735.595703125
178402.2;22888.18359375
178404.5;22567.7490234375
178405.0;22872.9248046875
178410.4;22460.9375
178412.9;23010.25390625
178414.4;22583.0078125
178421.8;22903.4423828125
178428.7;22460.9375
178434.9;22811.8896484375
178435.7;22598.2666015625
178436.5;22888.18359375
178437.8;22674.560546875
178439.1;22918.701171875
178445.1;22659.3017578125
178445.5;23010.25390625
178447.1;22476.1962890625
178447.4;22750.8544921875
178448.3;22567.7490234375
178451.0;22781.3720703125
178452.9;22628.7841796875
178455.0;22888.18359375
178457.3;22628.7841796875
178459.2;22888.18359375
178459.4;22659.3017578125
178463.0;22857.666015625
178469.3;22445.6787109375
178470.2;22720.3369140625
178473.0;22521.97265625
178479.1;22872.9248046875
178487.6;22460.9375
178492.1;22674.560546875
178492.2;22445.6787109375
178494.8;22857.666015625
178495.6;22521.97265625
178496.1;22872.9248046875
178496.3;22674.560546875
178498.3;22872.9248046875
178500.0;22781.3720703125
178500.1;22857.666015625
178502.8;23071.2890625
178503.2;22552.490234375
178503.8;22781.3720703125
178511.0;22521.97265625
178518.5;22903.4423828125
178518.9;22644.04296875
178522.5;22842.4072265625
178526.7;22506.7138671875
178528.5;22857.666015625
178529.2;22552.490234375
178534.0;22811.8896484375
178534.8;22567.7490234375
178535.6;22872.9248046875
178539.0;22628.7841796875
178540.2;22918.701171875
178545.2;22659.3017578125
178545.3;22903.4423828125
178551.0;22430.419921875
178553.2;22842.4072265625
178554.5;22613.525390625
178560.5;22933.9599609375
178569.0;22460.9375
178577.9;23101.806640625
178578.6;22689.8193359375
178581.3;22949.21875
178582.2;22567.7490234375
178583.3;22842.4072265625
178588.7;22445.6787109375
178588.9;22735.595703125
178590.7;22445.6787109375
178592.9;22811.8896484375
178595.1;22537.2314453125
178595.5;22811.8896484375
178598.2;22567.7490234375
178600.0;22796.630859375
178525.1;22583.0078125
178550.2;22598.2666015625
178575.3;22857.666015625
178600.1;22766.11328125
178602.6;22933.9599609375
178609.9;22445.6787109375
178611.5;22766.11328125
178611.9;22476.1962890625
178613.4;22781.3720703125
178614.0;22506.7138671875
178618.6;22903.4423828125
178622.1;22628.7841796875
178623.4;22872.9248046875
178629.5;22430.419921875
178636.6;22918.701171875
178637.3;22674.560546875
178638.1;22903.4423828125
178638.8;22689.8193359375
178640.2;22903.4423828125
178642.8;22705.078125
178643.1;22918.701171875
178649.2;22491.455078125
178652.0;22888.18359375
178653.9;22521.97265625
178660.0;22933.9599609375
178668.3;22460.9375
178668.8;22827.1484375
178669.1;22445.6787109375
178674.6;22903.4423828125
178674.8;22659.3017578125
178674.9;22842.4072265625
178678.6;22674.560546875
178679.5;22918.701171875
178679.8;22674.560546875
178679.9;22918.701171875
178681.0;22674.560546875
178682.7;22888.18359375
178690.0;22491.455078125
178691.9;22796.630859375
178694.0;22552.490234375
178700.0;22903.4423828125
178700.1;22888.18359375
178702.4;23056.0302734375
178706.7;22537.2314453125
178707.3;22811.8896484375
178708.6;22415.1611328125
178711.3;22827.1484375
178714.3;22521.97265625
178720.2;22918.701171875
178726.1;22537.2314453125
178727.4;22811.8896484375
178728.2;22521.97265625
178731.0;22735.595703125
178733.3;22567.7490234375
178733.8;22796.630859375
178735.4;22613.525390625
178736.0;23056.0302734375
178736.6;22659.3017578125
178739.3;22918.701171875
178742.8;22644.04296875
178743.5;22949.21875
178749.4;22445.6787109375
178752.8;22888.18359375
178753.6;22598.2666015625
178755.7;22888.18359375
178755.8;22659.3017578125
178759.3;22918.701171875
178759.8;22674.560546875
178760.7;23101.806640625
178768.5;22460.9375
178769.2;22766.11328125
178772.1;22445.6787109375
178779.0;22903.4423828125
178779.6;22659.3017578125
178782.9;22888.18359375
178789.2;22476.1962890625
178794.3;22964.4775390625
178794.8;22598.2666015625
178800.0;22857.666015625
178800.1;22857.666015625
178804.0;22521.97265625
178804.2;22796.630859375
178810.5;22567.7490234375
178811.1;22964.4775390625
178812.4;22567.7490234375
178817.0;22888.18359375
178821.8;22689.8193359375
178822.4;22918.701171875
178828.6;22521.97265625
178828.9;22872.9248046875
178831.1;22476.1962890625
178833.8;22857.666015625
178835.4;22521.97265625
178841.6;22888.18359375
178846.2;22460.9375
178850.2;22750.8544921875
178851.2;22460.9375
178862.5;22964.4775390625
178866.6;22506.7138671875
178870.4;22842.4072265625
178871.3;22415.1611328125
178873.4;22842.4072265625
178874.4;22567.7490234375
178874.6;22827.1484375
178875.6;22613.525390625
178881.8;22903.4423828125
178887.0;22445.6787109375
178887.2;22857.666015625
178887.3;22460.9375
178894.0;22857.666015625
178894.1;22659.3017578125
178895.9;22888.18359375
178896.0;22674.560546875
178897.5;22888.18359375
178900.0;22735.595703125
178825.1;22674.560546875
178850.2;22750.8544921875
178875.3;22735.595703125
178900.1;22811.8896484375
178903.9;22628.7841796875
178904.0;23056.0302734375
178907.3;22460.9375
178917.7;22903.4423828125
178920.0;22674.560546875
178920.8;23101.806640625
178921.0;22674.560546875
178921.5;22918.701171875
178924.7;22613.525390625
178924.9;22857.666015625
178928.3;22521.97265625
178928.7;22903.4423828125
178931.8;22491.455078125
178934.8;22842.4072265625
178935.5;22613.525390625
178941.8;22918.701171875
178950.3;22445.6787109375
178954.4;22994.9951171875
178954.8;22689.8193359375
178961.3;22949.21875
178962.4;22644.04296875
178962.6;22903.4423828125
178966.2;22415.1611328125
178968.6;22735.595703125
178970.1;22476.1962890625
178971.2;22781.3720703125
178974.9;22583.0078125
178976.2;22903.4423828125
178976.7;22644.04296875
178980.1;22872.9248046875
178981.5;22613.525390625
178981.6;22888.18359375
178984.2;22613.525390625
178985.2;22811.8896484375
178986.5;22430.419921875
178988.0;22842.4072265625
178989.4;22445.6787109375
178996.9;22979.736328125
179000.0;22720.3369140625
179000.1;22720.3369140625
179001.5;22918.701171875
179004.3;22583.0078125
179004.8;22842.4072265625
179006.8;22506.7138671875
179007.9;22766.11328125
179011.0;22445.6787109375
179014.9;22842.4072265625
179018.2;22674.560546875
179018.3;22918.701171875
179022.4;22689.8193359375
179022.6;23086.5478515625
179025.8;22476.1962890625
179026.0;22750.8544921875
179029.3;22415.1611328125
179029.9;22659.3017578125
179031.4;22521.97265625
179032.2;22750.8544921875
179032.9;22506.7138671875
179037.4;22872.9248046875
179037.6;22613.525390625
179040.1;22933.9599609375
179041.3;22644.04296875
179043.9;22857.666015625
179044.0;22552.490234375
179047.6;22750.8544921875
179050.8;22491.455078125
179054.5;22888.18359375
179056.9;22674.560546875
179057.2;23056.0302734375
179057.3;22628.7841796875
179058.2;22949.21875
179058.9;22659.3017578125
179061.9;22918.701171875
179064.7;22598.2666015625
179065.6;22796.630859375
179068.4;22491.455078125
179069.7;22735.595703125
179071.4;22644.04296875
